<svg width="40" height="41" viewBox="0 0 40 41" fill="none" xmlns="http://www.w3.org/2000/svg">
<path fill-rule="evenodd" clip-rule="evenodd" d="M23.3334 7.24874C23.3334 9.08207 21.8334 10.5821 20 10.5821C18.1667 10.5821 16.6667 9.08207 16.6667 7.24874C16.6667 5.41541 18.1667 3.91541 20 3.91541C21.8334 3.91541 23.3334 5.41541 23.3334 7.24874ZM32.5167 10.9821C33.4334 10.7821 34.3501 11.3154 34.5834 12.2321C34.8167 13.1654 34.2501 14.1154 33.3167 14.3321C30.6501 14.9321 27.7501 15.3487 25.0001 15.5821V35.5821C25.0001 36.4987 24.2501 37.2487 23.3334 37.2487C22.4167 37.2487 21.6667 36.4987 21.6667 35.5821V27.2487H18.3334V35.5821C18.3334 36.4987 17.5834 37.2487 16.6667 37.2487C15.7501 37.2487 15.0001 36.4987 15.0001 35.5821V15.5821C12.2501 15.3487 9.35006 14.9321 6.66673 14.3321C5.75006 14.1154 5.18339 13.1654 5.41673 12.2321C5.65006 11.3154 6.56673 10.7821 7.48339 10.9821C11.4501 11.8654 15.8667 12.2487 20.0001 12.2487C24.1334 12.2487 28.5501 11.8654 32.5167 10.9821Z" fill="#774AE1"/>
</svg>
