<svg width="40" height="40" viewBox="0 0 40 40" fill="none" xmlns="http://www.w3.org/2000/svg">
<path d="M29.9999 21.6666H21.6666V29.9999C21.6666 30.9166 20.9166 31.6666 19.9999 31.6666C19.0833 31.6666 18.3333 30.9166 18.3333 29.9999V21.6666H9.99992C9.08325 21.6666 8.33325 20.9166 8.33325 19.9999C8.33325 19.0833 9.08325 18.3333 9.99992 18.3333H18.3333V9.99992C18.3333 9.08325 19.0833 8.33325 19.9999 8.33325C20.9166 8.33325 21.6666 9.08325 21.6666 9.99992V18.3333H29.9999C30.9166 18.3333 31.6666 19.0833 31.6666 19.9999C31.6666 20.9166 30.9166 21.6666 29.9999 21.6666Z" fill="#774AE1"/>
</svg>
