<svg width="40" height="41" viewBox="0 0 40 41" fill="none" xmlns="http://www.w3.org/2000/svg">
<path fill-rule="evenodd" clip-rule="evenodd" d="M15 15.5821H18.3333V5.58207C18.3333 4.66541 19.0833 3.91541 20 3.91541C20.9167 3.91541 21.6667 4.66541 21.6667 5.58207V15.5821C21.6667 19.2654 18.6833 22.2487 15 22.2487V35.5821C15 36.4987 14.25 37.2487 13.3333 37.2487C12.4167 37.2487 11.6667 36.4987 11.6667 35.5821V22.2487C7.98333 22.2487 5 19.2654 5 15.5821V5.58207C5 4.66541 5.75 3.91541 6.66667 3.91541C7.58333 3.91541 8.33333 4.66541 8.33333 5.58207V15.5821H11.6667V5.58207C11.6667 4.66541 12.4167 3.91541 13.3333 3.91541C14.25 3.91541 15 4.66541 15 5.58207V15.5821ZM26.6667 20.5821V10.5821C26.6667 8.09873 29.3333 5.04873 32.9333 4.1654C33.9833 3.9154 35 4.7154 35 5.79873V35.5821C35 36.4987 34.25 37.2487 33.3333 37.2487C32.4167 37.2487 31.6667 36.4987 31.6667 35.5821V23.9154H30C28.1667 23.9154 26.6667 22.4154 26.6667 20.5821Z" fill="#774AE1"/>
</svg>
