<svg width="121" height="121" viewBox="0 0 121 121" fill="none" xmlns="http://www.w3.org/2000/svg">
<circle cx="60.0353" cy="60.8433" r="59.5" fill="white" stroke="#B3AAEB"/>
<g clip-path="url(#clip0)">
<path d="M60.063 38.4408H66.7704V32.9528H53.3556V38.4408H60.063Z" fill="#DDF5FF"/>
<path d="M63.2637 32.9528V38.4408H66.7702V32.9528C66.7702 32.9528 65.0135 32.9528 63.2637 32.9528Z" fill="#C1E9F4"/>
<path d="M66.7698 38.441L71.2839 41.119C74.0609 42.7663 75.7637 45.7561 75.7637 48.9851V56.2761C75.7637 56.6973 75.4221 57.0383 75.0016 57.0383C74.5804 57.0383 74.2394 57.3799 74.2394 57.8005V62.8313C74.2394 63.2519 74.5804 63.5935 75.0016 63.5935C75.4227 63.5935 75.7637 63.9345 75.7637 64.3557V92.0991C75.7637 95.4671 73.0337 98.1971 69.6663 98.1971H50.4585C47.0911 98.1971 44.3611 95.4671 44.3611 92.0991V64.3557C44.3611 63.9345 44.7021 63.5935 45.1233 63.5935C45.5444 63.5935 45.8854 63.2519 45.8854 62.8313V57.8011C45.8854 57.3799 45.5438 57.0389 45.1233 57.0389C44.7021 57.0389 44.3611 56.6973 44.3611 56.2767V48.9851C44.3611 45.7561 46.064 42.7663 48.8409 41.119L53.355 38.441H66.7698Z" fill="#81B8FD"/>
<path d="M75.0019 57.0383C75.4225 57.0383 75.7641 56.6972 75.7641 56.2761V48.985C75.7641 45.7561 74.0612 42.7663 71.2837 41.1184L66.7696 38.4404H63.2637L67.7778 41.1184C70.5553 42.7663 72.2576 45.7561 72.2576 48.985V56.2761C72.2576 56.6972 71.9166 57.0383 71.4954 57.0383C71.0749 57.0383 70.7332 57.3799 70.7332 57.8004V62.8307C70.7332 63.2518 71.0749 63.5929 71.4954 63.5929C71.9166 63.5929 72.2576 63.9345 72.2576 64.3551V92.099C72.2576 95.4665 69.5276 98.1964 66.1602 98.1964H69.6661C73.0335 98.1964 75.7635 95.4665 75.7635 92.099V64.3556C75.7635 63.9345 75.4225 63.5935 75.0013 63.5935C74.5808 63.5935 74.2391 63.2518 74.2391 62.8313V57.801C74.2391 57.3799 74.5808 57.0383 75.0019 57.0383Z" fill="#62A6FD"/>
<path d="M75.0021 57.0384C75.4226 57.0384 75.7643 56.6973 75.7643 56.2762V50.9409H72.2578V56.2762C72.2578 56.6973 71.9167 57.0384 71.4956 57.0384C71.075 57.0384 70.7334 57.38 70.7334 57.8005V62.8308C70.7334 63.2519 71.075 63.593 71.4956 63.593C71.9167 63.593 72.2578 63.9346 72.2578 64.3552V70.4532H75.7643V64.3552C75.7643 63.9346 75.4226 63.593 75.0021 63.593C74.5809 63.593 74.2399 63.2519 74.2399 62.8308V57.8005C74.2393 57.38 74.5809 57.0384 75.0021 57.0384Z" fill="#62A6FD"/>
<path d="M75.0016 57.0384C75.4221 57.0384 75.7637 56.6973 75.7637 56.2762V50.9409H44.3611V56.2762C44.3611 56.6973 44.7021 57.0384 45.1233 57.0384C45.5438 57.0384 45.8854 57.38 45.8854 57.8005V62.8308C45.8854 63.2519 45.5438 63.593 45.1233 63.593C44.7021 63.593 44.3611 63.9346 44.3611 64.3552V70.4532H75.7637V64.3552C75.7637 63.9346 75.4221 63.593 75.0016 63.593C74.5804 63.593 74.2394 63.2519 74.2394 62.8308V57.8005C74.2388 57.38 74.5804 57.0384 75.0016 57.0384Z" fill="#DDF5FF"/>
<path d="M74.9861 57.0384C75.4113 57.0303 75.7637 56.7122 75.7637 56.2865V50.9409H72.2573V56.2865C72.2573 56.7122 71.9054 57.0303 71.4796 57.0384C71.0659 57.0469 70.7329 57.3851 70.7329 57.8005V62.8417C70.7329 63.2668 71.0854 63.585 71.5105 63.5936C71.9248 63.6016 72.2573 63.9397 72.2573 64.3557V67.262C72.2573 68.0711 71.6015 68.7268 70.7924 68.7268H44.3611V70.4532H75.7637V64.3454C75.7637 63.9197 75.4113 63.6016 74.9861 63.593C74.5718 63.585 74.2394 63.2468 74.2394 62.8314V57.8005C74.2394 57.3851 74.5718 57.0469 74.9861 57.0384Z" fill="#C1E9F4"/>
<path d="M66.4647 32.9529H53.6594C52.8176 32.9529 52.135 32.2702 52.135 31.4285V24.7211C52.1356 23.8794 52.8176 23.1968 53.6599 23.1968H66.4647C67.3064 23.1968 67.9891 23.8794 67.9891 24.7211V31.4285C67.9891 32.2702 67.3064 32.9529 66.4647 32.9529Z" fill="#81B8FD"/>
<path d="M65.5496 23.1968V28.9898C65.5496 29.8315 64.8675 30.5141 64.0252 30.5141H52.1354V31.4285C52.1354 32.2702 52.8174 32.9529 53.6597 32.9529H66.4645C67.3062 32.9529 67.9889 32.2708 67.9889 31.4285V24.7211C67.9889 23.8794 67.3062 23.1968 66.4645 23.1968H65.5496Z" fill="#62A6FD"/>
<path d="M64.3306 62.526C64.3306 64.8732 62.4097 66.794 60.0625 66.794C57.7153 66.794 55.7938 64.8732 55.7938 62.526C55.7938 60.7887 58.1319 57.2811 59.3472 55.5754C59.6974 55.0833 60.427 55.0833 60.7777 55.5754C61.9931 57.2811 64.3306 60.7887 64.3306 62.526Z" fill="#81B8FD"/>
</g>
<defs>
<clipPath id="clip0">
<rect width="75" height="75" fill="white" transform="translate(22.5353 23.3433)"/>
</clipPath>
</defs>
</svg>
