<svg width="121" height="121" viewBox="0 0 121 121" fill="none" xmlns="http://www.w3.org/2000/svg">
<circle cx="60.0706" cy="60.6343" r="59.5" fill="white" stroke="#B3AAEB"/>
<g clip-path="url(#clip0)">
<path d="M62.1584 96.2081C61.4688 96.2387 60.7696 96.2592 60.0702 96.2592C40.2315 96.2592 24.1479 83.6895 24.1479 68.1867C24.1479 52.6739 40.2315 40.104 60.0702 40.104C60.7694 40.104 61.4687 40.1245 62.1584 40.1551C43.297 41.0033 28.3341 53.2256 28.3341 68.1867C28.3341 83.1375 43.297 95.3598 62.1584 96.2081Z" fill="#D15241"/>
<path d="M95.9931 68.187C95.9931 83.1379 81.0302 95.3704 62.1592 96.2084C43.2977 95.3602 28.3348 83.1379 28.3348 68.187C28.3348 53.226 43.2977 41.0037 62.1592 40.1553C81.0302 40.9933 95.9931 53.2258 95.9931 68.187Z" fill="#E56353"/>
<path d="M58.1956 96.2081C58.8852 96.2387 59.5844 96.2592 60.2838 96.2592C80.1225 96.2592 96.2061 83.6895 96.2061 68.1867C96.2061 52.6739 80.1225 40.104 60.2838 40.104C59.5846 40.104 58.8853 40.1245 58.1956 40.1551C77.057 41.0033 92.0199 53.2256 92.0199 68.1867C92.0199 83.1375 77.057 95.3598 58.1956 96.2081Z" fill="#FF6969"/>
<path d="M75.4084 49.3821C74.6507 47.7486 72.7227 46.5058 70.6943 45.5945C67.6743 44.2452 64.4201 43.6416 64.4201 43.6416C64.6875 46.21 64.2194 48.4708 63.5397 50.2935V50.3054C62.4253 53.3116 60.7203 55.1227 60.7203 55.1227C62.6483 50.4356 57.8673 45.5354 57.8673 45.5354C52.0165 46.1509 44.5388 56.6022 44.5388 56.6022C43.5357 54.7795 43.9369 52.8147 44.9621 50.9445C47.3136 46.6953 52.9526 43.0024 52.9526 43.0024C50.1665 42.4462 47.1576 42.8485 44.4718 43.5823C44.4718 43.5823 44.4718 43.5823 44.4718 43.5942C39.9471 44.8133 36.3926 47.0667 36.3926 47.0667C37.6186 42.0245 49.7877 40.221 52.7743 39.8777C53.2202 39.8303 53.6436 39.7357 54.0671 39.5936L55.3041 39.1795C57.0761 38.5877 58.3577 36.9306 58.4916 34.9658C58.6921 31.7226 58.0012 28.444 57.6334 26.9882C57.5218 26.5504 57.3213 26.136 57.0205 25.8282C56.6639 25.4613 56.4076 25.0944 56.2516 24.7275C55.7724 23.6977 55.9619 22.7154 56.2294 22.0644C56.4296 21.5789 56.8754 21.2593 57.377 21.2593H61.3777C61.4669 21.2593 61.5562 21.2711 61.6454 21.283C62.1358 21.3539 62.5815 21.6499 62.8265 22.0996C63.9409 24.1237 62.7263 27.6862 62.7263 27.6862C62.0911 30.4796 62.3585 34.0186 62.6595 36.2792C62.8153 37.5339 63.8296 38.4335 65.0107 38.4572C67.5071 38.5163 69.9144 39.1673 72.0206 40.0195C76.4337 41.8185 79.5989 44.5172 79.8774 44.7657C75.7317 42.2328 69.5689 41.5107 69.5689 41.5107C76.1105 44.2806 75.4084 49.3821 75.4084 49.3821Z" fill="#44C4A1"/>
<path d="M72.0213 40.0196C71.5868 40.1261 71.0852 40.0906 70.6282 40.0431C68.7672 39.842 66.906 39.6408 65.0449 39.4395C64.2202 39.3567 63.3286 39.2384 62.6936 38.6584C62.3257 38.3271 62.0807 37.8537 61.88 37.3919C60.409 33.9239 61.0221 29.9352 60.9774 26.1357C60.9662 25.3072 60.9104 24.4668 60.7544 23.65C60.6207 22.9162 60.2195 22.1942 60.1305 21.4604C60.1193 21.3893 60.1193 21.3302 60.1193 21.2591H61.3784C61.4676 21.2591 61.5568 21.2709 61.646 21.2828C62.1364 21.3537 62.5821 21.6497 62.8272 22.0994C63.9415 24.1235 62.7269 27.686 62.7269 27.686C62.0917 30.4794 62.3592 34.0184 62.6601 36.279C62.816 37.5337 63.8302 38.4333 65.0114 38.457C67.5077 38.5164 69.915 39.1674 72.0213 40.0196Z" fill="#3EA69B"/>
<path d="M52.7969 44.4462C50.334 46.8135 47.7152 48.9913 44.9624 50.9442C47.314 46.695 52.9529 43.0021 52.9529 43.0021C50.1668 42.4459 47.158 42.8482 44.4722 43.582C44.5614 43.2979 44.7508 43.0967 45.1631 42.8363C46.01 42.2918 47.0243 42.0078 47.9938 41.8893C49.409 41.7119 50.8467 41.8421 52.262 41.984C52.7189 42.0312 53.2426 42.1142 53.4992 42.5285C53.8778 43.156 53.3206 43.9491 52.7969 44.4462Z" fill="#3EA69B"/>
<path d="M64.4204 43.6417C64.6879 46.2101 64.2198 48.4709 63.5401 50.2936C63.2838 49.9503 63.2838 49.4533 63.2949 49.0153C63.3394 47.6896 63.3951 46.364 63.4398 45.0501C63.4621 44.5056 63.2281 41.9727 63.696 41.7004C64.1307 41.44 65.1226 42.4224 65.5015 42.6C65.8692 42.7775 68.5885 43.5469 68.5885 43.9494C69.3464 44.3754 70.1041 44.9318 70.6947 45.5945C67.6745 44.2453 64.4204 43.6417 64.4204 43.6417Z" fill="#3EA69B"/>
</g>
<g filter="url(#filter0_d)">
<rect x="60.0706" y="66.2593" width="1.875" height="13.125" fill="#EAEFF2"/>
<rect x="31.9456" y="64.3843" width="1.875" height="13.125" fill="#EAEFF2"/>
<rect x="88.1956" y="64.3843" width="1.875" height="13.125" fill="#EAEFF2"/>
<rect x="52.5706" y="68.1343" width="1.875" height="9.375" fill="#EAEFF2"/>
<rect x="67.5706" y="68.1343" width="1.875" height="9.375" fill="#EAEFF2"/>
<rect x="45.0706" y="68.1343" width="1.875" height="9.375" fill="#EAEFF2"/>
<rect x="75.0706" y="68.1343" width="1.875" height="9.375" fill="#EAEFF2"/>
<rect x="37.5706" y="66.2593" width="1.875" height="9.375" fill="#EAEFF2"/>
<rect x="82.5706" y="66.2593" width="1.875" height="9.375" fill="#EAEFF2"/>
<rect x="28.1956" y="62.5093" width="1.875" height="9.375" fill="#EAEFF2"/>
<rect x="91.9456" y="62.5093" width="1.875" height="9.375" fill="#EAEFF2"/>
</g>
<defs>
<filter id="filter0_d" x="-19.9294" y="-19.3657" width="160" height="160" filterUnits="userSpaceOnUse" color-interpolation-filters="sRGB">
<feFlood flood-opacity="0" result="BackgroundImageFix"/>
<feColorMatrix in="SourceAlpha" type="matrix" values="0 0 0 0 0 0 0 0 0 0 0 0 0 0 0 0 0 0 127 0"/>
<feOffset/>
<feGaussianBlur stdDeviation="10"/>
<feColorMatrix type="matrix" values="0 0 0 0 0 0 0 0 0 0 0 0 0 0 0 0 0 0 0.1 0"/>
<feBlend mode="normal" in2="BackgroundImageFix" result="effect1_dropShadow"/>
<feBlend mode="normal" in="SourceGraphic" in2="effect1_dropShadow" result="shape"/>
</filter>
<clipPath id="clip0">
<rect width="75" height="75" fill="white" transform="translate(22.5706 21.2593)"/>
</clipPath>
</defs>
</svg>
