<svg width="199" height="302" viewBox="0 0 199 302" fill="none" xmlns="http://www.w3.org/2000/svg">
<path d="M78.4509 56.9729C78.8937 58.1859 84.3488 59.9448 84.369 58.8733C84.3891 57.8018 89.6429 53.5765 91.8773 50.8068C95.5208 46.3187 93.1455 43.1648 93.85 32.7734C94.1319 28.7705 95.5228 17.9969 91.8371 10.6279C88.5378 4.03724 85.4701 5.33718 85.4701 5.33718C85.4701 5.33718 66.4938 23.1886 78.4509 56.9729Z" fill="#2D2120"/>
<path d="M80.3127 69.202C76.2868 68.171 63.122 61.1355 61.3506 60.711C54.3253 54.7268 50.6215 0.0605378 81.7218 4.77105C81.8968 4.77535 82.0715 4.78884 82.2451 4.81149C82.9698 15.8499 88.4249 24.7655 90.9411 36.0262C94.4034 51.4719 75.8077 53.2712 80.3127 69.202Z" fill="#231817"/>
<path d="M89.4213 32.7917C89.4213 32.7917 91.092 40.4741 87.5291 49.1269C85.2142 54.7876 80.383 56.6678 80.383 56.6678L85.4758 57.6988C85.4758 57.6988 85.7778 59.1746 91.7362 51.3103C97.6946 43.446 94.8361 28.6675 94.8361 28.6675L89.4213 32.7917Z" fill="#3F2F2D"/>
<path d="M92.5315 21.6907C92.5315 21.6907 102.816 34.1543 96.8513 40.6278C89.3349 48.7792 89.7153 52.8064 95.5348 56.3665C95.5348 56.3665 90.4017 54.4399 88.8034 51.3002C87.1367 48.0291 91.837 42.3078 93.0669 39.7483C95.1523 35.426 91.3841 23.3929 91.3841 23.3929L92.5315 21.6907Z" fill="#4F3836"/>
<path d="M90.591 53.71C90.6695 53.3926 89.9992 51.4114 89.4456 51.2517C78.9057 48.0796 68.5249 50.1013 67.1822 51.3305C65.8396 52.5597 65.6423 58.2689 65.6423 58.2689L89.5241 58.8633L90.591 53.71Z" fill="#E1E1E1"/>
<path d="M89.6025 51.2133C89.6025 51.2133 86.8004 49.6667 78.195 49.596C73.5773 49.5555 67.9712 50.0003 66.7875 51.6965L67.6954 53.6393C67.6954 53.6393 66.6688 49.3938 77.9977 49.7537C87.038 50.0306 89.1294 51.371 89.2482 53.2815L89.6025 51.2133Z" fill="url(#paint0_linear)"/>
<path d="M55.2757 61.8633C56.4835 61.8027 70.9366 55.6568 71.3593 53.1095C71.7985 50.4966 71.7644 47.8256 71.2586 45.2249L83.0949 41.2422C82.5514 45.6292 84.4838 51.9167 85.7922 54.5651C86.6377 56.2431 90.7844 58.8308 95.6759 60.2864C94.7902 61.176 84.3429 77.0462 77.519 82.4238C76.9594 82.9899 56.4674 66.7154 55.2757 61.8633Z" fill="url(#paint1_linear)"/>
<path d="M62.4476 29.6137C63.2528 34.0816 63.595 37.5185 63.595 37.5185C60.6964 36.6289 58.4217 28.3198 61.3405 28.3198C61.8639 28.3198 62.4476 29.6137 62.4476 29.6137Z" fill="#F0C999"/>
<path d="M62.2263 35.2945C62.2263 35.2945 61.4815 34.3443 61.8035 32.6663C62.5685 28.724 59.9717 28.1377 60.4347 30.9478C60.4347 30.9478 60.8574 29.6944 61.1594 30.1189C61.5418 30.6446 60.6964 30.8063 61.0185 32.9291C61.2198 34.0208 62.2263 35.2945 62.2263 35.2945Z" fill="url(#paint2_linear)"/>
<path d="M60.2111 58.3052C66.4513 57.0922 70.4773 53.7767 70.7389 53.5543C71.1818 53.1904 71.5039 51.4113 71.5039 49.6322C71.5039 48.864 71.4435 47.7521 71.3831 46.7412C71.6246 46.9838 76.9389 48.4799 77.4824 48.4799C78.6902 48.4799 84.6888 44.4163 85.1316 43.6076L85.4336 43.5874C85.4336 43.5874 85.0914 51.8561 86.6816 55.0503C86.8628 55.4142 91.4121 58.4063 94.9147 59.4172C96.525 60.3471 89.0368 72.8613 88.1712 76.8845C87.044 82.1206 65.6663 77.5921 65.6663 77.5921C65.6663 77.5921 57.8358 58.7702 60.2111 58.3052ZM71.4837 57.3753C73.4363 61.2569 73.4363 69.849 77.0596 78.2188C81.6492 65.5631 80.059 63.5818 84.4674 57.072C84.0245 56.0409 83.9239 55.1716 83.7427 53.716L72.9129 51.007C72.8928 54.7875 72.148 56.1016 71.4837 57.3773V57.3753Z" fill="url(#paint3_linear)"/>
<path d="M92.6361 29.5975C92.0724 34.1058 91.4585 37.4274 91.4585 37.4274C94.2968 36.3964 96.5815 28.0812 93.6727 28.2247C93.1594 28.2652 92.6361 29.5975 92.6361 29.5975Z" fill="#F0C999"/>
<path d="M92.7167 35.3187C92.7167 35.3187 93.5622 34.4089 93.2804 32.65C92.6362 28.4854 95.4544 28.1821 94.8304 31.0327C94.8304 31.0327 94.4278 29.6984 94.0856 30.1027C93.6427 30.6081 94.5485 30.871 94.1057 33.0139C93.8641 34.1461 92.7167 35.3187 92.7167 35.3187Z" fill="#DBA779"/>
<path d="M76.8824 63.5272C76.1377 62.7185 75.2519 60.1914 75.2519 60.1914C75.8156 60.4744 77.1643 62.0918 77.5467 61.93C77.9292 61.7683 79.5999 59.6051 79.5395 60.1105C79.4792 60.616 77.6071 64.3561 76.8824 63.5272Z" fill="url(#paint4_linear)"/>
<path d="M74.9439 6.71593C84.4753 4.8297 90.333 14.178 92.2091 25.5438C93.272 31.9202 92.3621 36.3154 89.7795 41.2543C88.5616 43.1628 86.6211 44.206 84.9202 46.0396C83.0743 48.031 80.8942 50.5763 77.8184 50.5763C74.7426 50.5763 71.5601 47.7237 69.994 45.8294C68.4863 44.0746 66.0023 42.9182 65.1045 41.3493C62.6648 37.0897 62.6105 33.9379 62.4374 25.4994C63.0755 15.1099 68.6977 7.01918 74.9439 6.71593Z" fill="#F7D9AB"/>
<path d="M62.6848 32.2176C62.6848 32.2176 61.3664 26.1525 63.3391 19.9257C65.2111 14.0447 69.0237 7.77746 74.1769 6.66554C74.1769 6.66554 84.6644 3.56428 91.5689 15.0494C95.0916 20.9305 95.1922 31.0915 93.3564 36.8654C93.3564 36.8654 93.7429 31.7546 92.7767 29.0375C92.7767 29.0375 88.2878 22.2365 85.2683 19.2C75.2035 9.01877 71.5399 7.82194 68.7419 11.8855C65.1588 17.1237 64.8589 24.3674 62.6848 32.2176Z" fill="url(#paint5_linear)"/>
<path d="M75.5302 32.9333C75.0672 28.0408 75.2483 23.8559 69.7127 22.9058C64.5394 22.0162 63.09 24.4018 62.6069 25.1094C61.8681 28.2208 62.8686 32.8807 62.8686 32.8807C62.8686 32.8807 66.6328 36.6936 75.5302 32.9333Z" fill="url(#paint6_linear)"/>
<path d="M79.8335 33.3778C80.4374 29.4962 79.3101 23.5727 86.6172 22.9864C88.8919 22.8044 90.7438 23.4312 91.9314 24.3005C94.6892 26.3424 92.7125 31.9384 92.7125 31.9384C92.7125 31.9384 88.916 36.8753 79.8335 33.3778Z" fill="url(#paint7_linear)"/>
<path d="M68.6254 25.5481C73.6175 25.5481 74.5234 28.5402 74.624 30.764C74.2416 30.8449 73.8591 30.9258 73.1143 31.1482C72.1078 31.4514 70.9403 31.9568 69.2494 31.9366C67.9208 31.9164 64.9416 31.2492 64.9014 28.3582C64.8611 26.094 67.4176 25.6492 68.6254 25.5481Z" fill="url(#paint8_linear)"/>
<path d="M71.492 27.4038C71.9952 27.8688 72.6716 28.6027 72.7118 29.3911C72.7521 30.2807 72.4099 30.7861 71.8261 31.3319C72.591 31.1298 73.3157 30.7456 74.4027 30.6041C74.3987 30.5819 73.2634 28.4551 71.492 27.4038Z" fill="url(#paint9_linear)"/>
<path d="M72.6716 29.1466C73.31 29.553 73.8921 30.0424 74.4027 30.6022C74.4027 30.6022 73.3358 28.4188 71.7255 27.6304C72.2251 27.9931 72.5644 28.5369 72.6716 29.1466Z" fill="#DDDDDD"/>
<path d="M67.7195 29.6317C67.6591 28.3378 68.4241 27.1854 69.5312 26.8215C68.3033 26.9226 66.8137 27.5696 65.002 29.0656C65.002 29.0656 66.0286 31.2288 68.9474 31.6129C68.263 31.1681 67.7558 30.5819 67.7195 29.6317Z" fill="url(#paint10_linear)"/>
<path d="M72.6715 29.0738C72.6916 29.1951 72.6916 29.2759 72.7117 29.377C72.7721 30.2463 72.4501 30.7922 71.826 31.3178C71.6247 31.4189 69.7929 31.7828 68.6657 31.6009C67.9611 31.1561 67.4378 30.59 67.3774 29.6803C67.3489 29.2268 67.4391 28.7738 67.6391 28.3662C68.4756 28.088 69.3648 28.0072 70.2375 28.1299C71.1103 28.2526 71.9431 28.5756 72.6715 29.0738Z" fill="url(#paint11_linear)"/>
<path d="M68.6858 27.3877C67.3975 27.6303 66.1897 28.2368 65.4651 29.1466L65.8073 29.7733C66.3272 29.3731 66.8953 29.0403 67.4981 28.7827C67.7058 28.1845 68.1297 27.6866 68.6858 27.3877Z" fill="#DDDDDD"/>
<path d="M70.2158 28.3379C71.0902 28.4217 71.9355 28.6977 72.6917 29.1465C72.5798 28.5335 72.2328 27.9891 71.7255 27.6303C71.4983 27.5284 71.2625 27.4472 71.0209 27.3877C70.2418 27.2429 69.4423 27.2497 68.6658 27.4079C68.0992 27.7035 67.6723 28.2122 67.4781 28.8231C68.3368 28.4368 69.2773 28.2701 70.2158 28.3379Z" fill="#3A1E19"/>
<path d="M71.3793 29.3224C71.4086 29.589 71.3579 29.8583 71.2338 30.0958C71.1097 30.3333 70.9178 30.5281 70.6828 30.6554C70.4477 30.7826 70.1801 30.8364 69.9144 30.81C69.6486 30.7835 69.3968 30.6779 69.1912 30.5067C68.9856 30.3356 68.8356 30.1066 68.7604 29.8493C68.6852 29.5919 68.6882 29.3179 68.7691 29.0623C68.85 28.8067 69.005 28.5812 69.2144 28.4146C69.4237 28.2481 69.6778 28.1482 69.944 28.1276C70.1165 28.1106 70.2907 28.1282 70.4564 28.1791C70.6221 28.2301 70.7761 28.3136 70.9096 28.4246C71.043 28.5357 71.1532 28.6723 71.2339 28.8263C71.3145 28.9804 71.3639 29.149 71.3793 29.3224Z" fill="#0C1412"/>
<path d="M68.1383 29.2497C68.1303 29.0413 68.1857 28.8355 68.2972 28.6595C68.4087 28.4836 68.5709 28.346 68.7623 28.2652C69.1307 28.1499 69.4387 28.4128 69.4447 28.8454C69.4545 29.0541 69.4006 29.2608 69.2901 29.4379C69.1797 29.6149 69.018 29.7538 68.8267 29.836C68.4543 29.9432 68.1443 29.6803 68.1383 29.2497Z" fill="white"/>
<path d="M65.002 29.0738C64.4609 28.8687 63.9924 28.5074 63.6553 28.0355C63.3182 27.5635 63.1277 27.0019 63.1078 26.4214C63.1279 26.4416 64.5068 27.6223 67.3733 26.9733C70.2397 26.3243 73.6557 27.598 74.4186 30.6123C74.4186 30.6123 72.6271 27.8426 70.2719 27.7213C68.5823 27.6094 66.9154 28.1602 65.622 29.2578C66.2541 30.861 67.2606 30.9884 68.9313 31.6353C67.1196 31.3927 66.3869 31.0874 65.8233 30.491C65.456 30.0799 65.1765 29.5976 65.002 29.0738Z" fill="url(#paint12_linear)"/>
<path d="M73.6376 27.5495C73.034 26.7384 72.1983 26.1318 71.2422 25.8108C69.6116 25.2447 67.9811 25.5076 66.7532 25.9321C66.7532 25.9321 69.3701 25.4267 71.1415 26.1141C72.9129 26.8014 73.6376 27.5495 73.6376 27.5495Z" fill="#DBA779"/>
<path d="M74.3986 30.5819C74.3986 30.5819 72.6272 27.9133 70.4532 27.7111C68.2792 27.5089 66.548 28.4793 65.6019 29.2274C65.6019 29.2274 66.7493 27.0642 70.5739 27.4483C73.4364 27.7313 74.3986 30.5819 74.3986 30.5819Z" fill="#391B13"/>
<path d="M72.4983 23.6557C73.6859 24.2218 74.5515 25.3944 73.5047 25.0507C72.458 24.707 68.0234 22.7824 67.178 22.7622C65.8696 22.7217 63.9572 23.4091 63.454 23.7326C63.454 23.7326 65.789 22.3174 67.2182 22.1759C68.6475 22.0344 71.8541 23.3525 72.4983 23.6557Z" fill="url(#paint13_linear)"/>
<path d="M88.4491 22.1779C89.8783 22.3194 92.2133 23.7346 92.2133 23.7346C91.7101 23.4111 89.7978 22.7238 88.4893 22.7642C87.6439 22.7844 83.2093 24.7091 82.1626 25.0527C81.1158 25.3964 81.9814 24.2238 83.1691 23.6578C83.8132 23.3525 87.0199 22.0566 88.4491 22.1779Z" fill="url(#paint14_linear)"/>
<path d="M80.9852 37.0776C80.9852 37.0776 78.4288 38.7961 77.845 38.7152C77.2612 38.6343 74.9061 37.0776 74.9061 37.0776L77.8913 37.3081L80.9852 37.0776Z" fill="url(#paint15_linear)"/>
<path d="M77.9452 35.4966C79.5556 35.5249 80.0186 35.8019 79.8978 36.1031C79.616 36.8229 78.9316 36.9624 77.9251 36.9624C76.8582 36.9624 76.0329 36.7966 75.8719 36.0202C75.8074 35.7878 76.3348 35.4683 77.9452 35.4966Z" fill="url(#paint16_linear)"/>
<path d="M76.8583 37.3627C76.8583 37.3627 76.0672 37.0049 75.5298 36.7118C75.1272 36.4975 74.9822 36.2872 74.8454 36.4328C73.8993 37.4011 76.8583 37.3627 76.8583 37.3627Z" fill="url(#paint17_linear)"/>
<path d="M78.9195 37.4254L80.3286 36.74C80.7151 36.554 80.8379 36.4348 80.9767 36.55C81.9712 37.4011 78.9195 37.4254 78.9195 37.4254Z" fill="url(#paint18_linear)"/>
<path d="M80.985 37.0777C80.985 37.0777 81.1662 36.6532 80.4818 36.6936C79.9987 36.734 79.5961 38.0218 77.8649 37.9834C76.013 37.9228 75.7714 36.734 75.2883 36.7158C75.236 36.7061 75.182 36.7093 75.1312 36.7251C75.0803 36.741 75.0341 36.769 74.9964 36.8068C74.9588 36.8446 74.9309 36.8911 74.9151 36.9421C74.8993 36.9932 74.8961 37.0474 74.9058 37.0999C74.9058 37.0999 74.0201 36.635 74.3623 36.2306C74.9662 35.4826 75.1474 37.2778 77.9052 37.2415C80.9045 37.201 81.2467 35.4684 81.6493 36.4186C81.8305 36.7744 81.5084 36.8957 80.985 37.0777Z" fill="#F0C999"/>
<path d="M81.5504 42.72C80.8257 44.2565 76.8602 46.3995 73.9414 42.6392C73.9615 42.6594 78.0881 44.5395 81.5504 42.72Z" fill="#F0C999"/>
<path d="M71.5321 40.8259C71.1798 40.7854 70.9282 40.563 71.0007 40.2719C71.0732 40.0212 72.6996 40.6864 73.4163 41.3353C72.8157 41.076 72.1812 40.9044 71.5321 40.8259Z" fill="url(#paint19_linear)"/>
<path d="M82.0863 41.4525C82.7989 40.8036 84.4253 40.1384 84.5018 40.3891C84.5803 40.6802 84.3227 40.9026 83.9704 40.943C83.3214 41.0216 82.6869 41.1932 82.0863 41.4525Z" fill="url(#paint20_linear)"/>
<path d="M77.9617 41.2544C80.0068 41.2644 82.0466 41.044 84.0428 40.5974C84.0247 40.6338 84.0066 40.6156 83.9885 40.652C83.5738 40.8339 83.0867 40.9593 82.4727 41.3959C82.0581 41.7032 81.6253 43.7694 77.4745 43.6986C75.1999 43.6622 73.9257 42.8495 72.6092 41.2726C72.3404 40.9643 72.0228 40.7027 71.6691 40.4983L71.6269 40.4761C71.6269 40.4761 74.0465 41.2726 77.9617 41.2544Z" fill="#961B27"/>
<path d="M74.2073 41.6082C76.5343 42.1521 79.7107 42.0975 80.8662 41.8973C81.5345 41.6082 81.4701 42.4594 81.4701 42.4594C80.0086 43.9635 78.8351 43.6724 77.6454 43.6926C76.49 43.7108 74.7588 43.2397 73.7302 42.3158C73.6296 42.0126 73.8832 41.5253 74.2073 41.6082Z" fill="url(#paint21_linear)"/>
<path d="M72.933 40.8137C72.933 40.8137 73.7704 41.1938 75.7512 41.3939C77.7319 41.5941 78.5854 41.4849 80.381 41.4121C81.2003 41.3757 81.7458 41.1635 82.7845 40.9472C82.6461 41.1276 82.5235 41.3197 82.4181 41.5213C82.2591 41.8468 81.4801 42.9527 77.7682 42.8981C74.9742 42.8617 73.5168 41.956 73.3175 41.3939C73.2108 41.0664 72.9511 40.9229 72.933 40.8137Z" fill="url(#paint22_linear)"/>
<path d="M82.7807 40.9067L82.5794 41.311C80.9807 41.9217 79.2815 42.2235 77.5711 42.2006C75.5159 42.1824 73.2252 41.1897 73.2252 41.1897L73.0702 40.7854L82.7807 40.9067Z" fill="url(#paint23_linear)"/>
<path d="M77.3578 43.1709C82.4647 43.1891 80.7496 41.3877 84.1616 40.573C83.5889 40.937 83.0353 41.3304 82.5029 41.7516C81.7622 42.3399 80.5705 44.6406 77.7181 44.6062C75.1375 44.5699 73.3117 42.0205 72.8045 41.5838C72.2972 41.1472 71.5967 40.4578 71.5745 40.4578C74.3162 41.2361 73.2956 43.0233 77.3578 43.1709Z" fill="#E54C5F"/>
<path d="M80.2702 42.3927C81.0633 41.9883 82.5207 41.2363 82.6636 41.1271C82.4824 41.3818 80.6124 44.2809 77.7258 44.1899C74.4044 44.099 72.9571 41.3394 72.1982 40.7773C72.6793 40.9512 74.189 42.0126 75.0546 42.3199C75.6323 42.5221 76.5884 43.0315 77.6714 43.0861C79.0684 43.0861 79.4952 42.7182 80.2702 42.3927Z" fill="#EA5770"/>
<path d="M75.1636 43.0234C75.1274 43.1326 75.8742 43.6299 76.5606 43.8199C77.4262 44.0747 78.95 43.6299 78.9762 43.5207C79.0023 43.4115 76.5989 43.4398 76.2728 43.3185C75.9467 43.1972 75.2039 42.9061 75.1636 43.0234Z" fill="#E595A1"/>
<path d="M75.7232 40.4316C76.7156 40.3588 76.8243 40.7187 77.5449 40.7368C78.2656 40.755 78.8091 40.3325 79.6565 40.4316C80.7757 40.5407 82.5351 40.9006 84.1595 40.5731C84.1595 40.5731 83.1531 40.9653 80.1618 41.5435C79.2781 41.7073 78.483 41.8872 77.563 41.8508C76.462 41.8508 75.5501 41.6143 74.7127 41.4707C73.6294 41.2614 72.5751 40.922 71.5725 40.4599C72.3314 40.656 74.6241 40.5023 75.7232 40.4316Z" fill="#E54C5F"/>
<path d="M80.8399 41.0361C80.8037 40.9269 79.3241 40.7996 79.0705 40.7996C78.8169 40.7996 78.0057 40.9451 77.7178 40.9451C77.235 40.9371 76.7531 40.9007 76.2745 40.8359C76.0209 40.7814 74.2173 40.9269 74.2354 41.0543C74.2535 41.1817 76.8703 41.5071 77.1763 41.5435C77.5105 41.5617 80.9204 41.3616 80.8399 41.0361Z" fill="#E595A1"/>
<path d="M82.3356 48.5203C81.0461 49.6061 79.3966 50.1641 77.7158 50.083C76.4074 50.0082 74.6964 49.6383 73.3275 48.7386C74.5293 49.8129 76.054 50.4533 77.6595 50.5581C79.0283 50.6349 80.8862 49.9213 82.3356 48.5203Z" fill="url(#paint24_linear)"/>
<path d="M92.5698 44.5982C92.5698 44.5982 98.1457 31.6796 94.1399 15.9307C90.9393 3.31544 84.5582 5.72124 84.5582 5.72124L81.6193 10.8765C97.6425 16.9618 92.5698 44.5982 92.5698 44.5982Z" fill="#5B423E"/>
<path d="M66.9246 9.54228C63.0194 11.9885 57.6649 23.0653 56.0022 30.6668C54.3395 38.2683 54.0315 55.1736 54.0315 55.1736C53.79 46.4804 51.2597 34.5201 52.6486 24.5937C54.5609 10.9271 63.6233 1.00877 70.5278 0.402268C81.2971 -0.527704 84.9205 5.71929 84.9205 5.71929L81.6192 10.8746C78.8011 5.57979 70.8297 7.11627 66.9246 9.54228Z" fill="#5B423E"/>
<path d="M77.0154 9.41094C70.6343 9.69398 61.584 29.7592 61.584 29.7592C61.584 29.7592 66.4674 6.75445 77.3374 6.77467C80.0348 6.77467 81.619 10.8787 81.619 10.8787C81.619 10.8787 80.7635 9.22899 77.0154 9.41094Z" fill="#3F2F2D"/>
<path d="M59.3475 35.9233C57.5821 37.7428 60.8491 51.8158 63.8364 55.3153C70.1792 62.753 63.617 70.6619 57.7029 72.073C52.1672 73.3911 50.0375 70.0068 50.0375 70.0068C62.0851 65.6845 48.2661 57.3491 48.0245 51.3609C47.7729 45.1483 50.6414 43.0214 53.3488 38.6243C56.0563 34.2271 49.3229 33.1091 49.176 27.9902C49.029 22.8714 53.8662 19.8975 53.8662 19.8975C51.3882 30.9257 61.1128 34.0816 59.3475 35.9233Z" fill="#5B423E"/>
<path d="M60.6864 32.1689C58.8325 35.7918 57.7998 38.0318 58.8748 39.9504C60.4046 42.6756 66.6267 43.2356 66.6267 43.2356C64.4829 43.0739 56.6303 40.0919 63.0034 30.9034C65.9987 26.5749 56.8678 17.9646 56.8678 17.9646C58.4561 18.8481 63.1946 27.2542 60.6864 32.1689Z" fill="#4F3836"/>
<path d="M62.8421 46.7776C61.2881 49.4967 66.9908 57.1791 66.558 62.3162C66.1252 67.4533 59.3113 71.1408 54.5004 66.7194C52.5397 64.9141 53.0369 61.6066 53.0369 61.6066C54.9734 66.6709 61.9463 60.1651 58.2908 57.1063C52.8698 52.5838 55.5572 44.7336 55.5572 44.7336L62.8421 46.7776Z" fill="#4F3836"/>
<path d="M52.568 41.9742C52.7693 42.5807 54.6393 43.5916 57.9003 44.8046C61.1613 46.0176 62.6549 48.4982 62.2866 52.1554C61.6625 58.3862 54.9976 56.4232 54.9976 56.4232C54.9976 56.4232 59.5992 54.6744 57.6145 52.1958C55.674 49.7698 51.3018 51.8036 49.3955 47.7704C47.9985 44.8248 49.4076 40.0637 49.9249 38.2119C50.4423 36.36 52.3626 41.3718 52.568 41.9742Z" fill="#5B423E"/>
<path d="M86.6777 55.0503C86.7602 56.7121 79.0143 67.1925 77.0698 67.1925C75.1253 67.1925 69.9137 58.0424 69.1226 55.3535" stroke="#EA8E15" stroke-width="0.2416" stroke-miterlimit="10" stroke-linecap="round"/>
<path d="M77.0737 67.9972C76.6312 67.9972 76.2725 67.637 76.2725 67.1926C76.2725 66.7482 76.6312 66.3879 77.0737 66.3879C77.5162 66.3879 77.8749 66.7482 77.8749 67.1926C77.8749 67.637 77.5162 67.9972 77.0737 67.9972Z" fill="url(#paint25_linear)" stroke="#EA8E15" stroke-width="0.2416" stroke-miterlimit="10"/>
<path d="M51.3765 33.4264C48.2423 40.8622 54.9274 45.6111 54.9274 45.6111C51.1691 44.0928 47.0426 42.2591 48.4376 35.2884C50.6981 24.0499 68.1888 9.33203 68.1888 9.33203C68.1888 9.33203 54.5107 25.9907 51.3765 33.4264Z" fill="#4F3836"/>
<path d="M86.6617 16.5271C90.2045 23.5626 93.2763 29.8561 93.2763 29.8561C95.088 22.4365 86.0618 13.2136 84.7333 11.7175C83.4047 10.2215 81.6192 10.8785 81.6192 10.8785C83.3705 11.6043 84.7494 12.6981 86.6617 16.5271Z" fill="#3F2F2D"/>
<path d="M89.0266 19.6304C92.2071 30.0421 94.4817 33.2566 94.1999 40.1707C93.9584 46.5592 89.6708 51.108 89.6708 51.108C102.781 41.2826 94.9306 28.445 92.1125 18.842C88.3281 5.98408 81.6249 10.8765 81.6249 10.8765C81.6249 10.8765 86.5507 11.4022 89.0266 19.6304Z" fill="#634744"/>
<path d="M70.3728 3.3014C80.6389 1.40102 84.6145 6.59068 84.6145 6.59068C91.7807 6.91415 95.5006 24.7858 95.5006 24.7858C94.8162 15.9308 91.8773 8.42636 89.5463 6.50577C88.1898 5.36845 86.4821 4.7396 84.7151 4.72669C80.8402 0.185994 74.7389 -0.762175 68.1847 0.929972C59.1465 3.37621 53.959 19.2019 53.959 19.2019C53.959 19.2019 62.8483 4.67615 70.3728 3.3014Z" fill="#634744"/>
<path d="M90.5144 28.3582C90.4742 31.2492 87.495 31.9164 86.1664 31.9366C84.4755 31.9568 83.308 31.4514 82.3015 31.1482C81.5567 30.9258 81.1743 30.8449 80.7918 30.764C80.8925 28.5402 81.7983 25.5481 86.7904 25.5481C87.9982 25.6492 90.5547 26.094 90.5144 28.3582Z" fill="url(#paint26_linear)"/>
<path d="M81.0133 30.6022C82.1003 30.7437 82.8249 31.1278 83.5899 31.33C83.0061 30.7841 82.6639 30.2787 82.7042 29.3892C82.7444 28.6007 83.4208 27.8668 83.924 27.4019C82.1546 28.4552 81.0133 30.582 81.0133 30.6022Z" fill="url(#paint27_linear)"/>
<path d="M83.6902 27.6304C82.0798 28.4188 81.0129 30.6022 81.0129 30.6022C81.5235 30.0424 82.1056 29.553 82.7441 29.1466C82.8512 28.5369 83.1906 27.9931 83.6902 27.6304Z" fill="#DDDDDD"/>
<path d="M86.4762 31.6129C89.395 31.2288 90.4216 29.0656 90.4216 29.0656C88.6099 27.5696 87.1203 26.9226 85.8924 26.8215C86.9995 27.1854 87.7645 28.3378 87.7041 29.6317C87.6558 30.5819 87.1525 31.1681 86.4762 31.6129Z" fill="url(#paint28_linear)"/>
<path d="M87.7769 28.3581C87.9769 28.7657 88.0671 29.2188 88.0386 29.6722C87.9782 30.582 87.4548 31.148 86.7503 31.5928C85.6231 31.7748 83.7913 31.4109 83.59 31.3098C82.9659 30.7841 82.6439 30.2383 82.7043 29.369C82.7244 29.2679 82.7244 29.187 82.7445 29.0657C83.4729 28.5675 84.3057 28.2445 85.1785 28.1218C86.0512 27.9991 86.9403 28.08 87.7769 28.3581Z" fill="url(#paint29_linear)"/>
<path d="M87.9175 28.7827C88.5203 29.0403 89.0884 29.3731 89.6084 29.7733L89.9506 29.1466C89.2259 28.2368 88.0181 27.6303 86.7298 27.3877C87.2859 27.6866 87.7098 28.1845 87.9175 28.7827Z" fill="#DDDDDD"/>
<path d="M87.9379 28.8231C87.7438 28.2122 87.3168 27.7035 86.7503 27.4079C85.9738 27.2497 85.1742 27.2429 84.3951 27.3877C84.1535 27.4472 83.9177 27.5284 83.6906 27.6303C83.1832 27.9891 82.8363 28.5335 82.7244 29.1465C83.4806 28.6977 84.3259 28.4217 85.2003 28.3379C86.1387 28.2701 87.0793 28.4368 87.9379 28.8231Z" fill="#3A1E19"/>
<path d="M85.4699 28.1276C85.7223 28.1561 85.9607 28.2585 86.1556 28.4221C86.3504 28.5857 86.493 28.8032 86.5657 29.0476C86.6383 29.292 86.6378 29.5524 86.5641 29.7965C86.4904 30.0406 86.3469 30.2575 86.1514 30.4203C85.9559 30.583 85.717 30.6844 85.4646 30.7119C85.2121 30.7393 84.9572 30.6915 84.7315 30.5745C84.5059 30.4574 84.3195 30.2763 84.1956 30.0537C84.0717 29.8311 84.0157 29.5768 84.0347 29.3224C84.0488 29.1486 84.0973 28.9793 84.1775 28.8245C84.2577 28.6697 84.3679 28.5327 84.5017 28.4213C84.6354 28.31 84.79 28.2267 84.9563 28.1762C85.1225 28.1258 85.2972 28.1093 85.4699 28.1276Z" fill="#0C1412"/>
<path d="M83.5315 29.3911C83.5135 29.1845 83.5583 28.9773 83.6601 28.7968C83.7618 28.6163 83.9156 28.4711 84.1012 28.3803C84.4817 28.1781 84.8601 28.3257 84.9346 28.7057C84.9526 28.9123 84.9078 29.1196 84.8061 29.3C84.7044 29.4805 84.5505 29.6258 84.3649 29.7166C83.9865 29.9167 83.608 29.7712 83.5315 29.3911Z" fill="white"/>
<path d="M89.5886 30.4891C89.025 31.0956 88.2902 31.3908 86.4806 31.6334C88.1513 30.9864 89.1578 30.859 89.7899 29.2559C88.4965 28.1583 86.8295 27.6075 85.1399 27.7194C82.7848 27.8407 80.9932 30.6104 80.9932 30.6104C81.7582 27.5981 85.1742 26.3244 88.0386 26.9714C90.9031 27.6183 92.2839 26.4397 92.3041 26.4194C92.2848 26.9998 92.0951 27.5615 91.7588 28.0338C91.4225 28.5062 90.9545 28.868 90.4139 29.0739C90.2379 29.5973 89.9571 30.0789 89.5886 30.4891Z" fill="url(#paint30_linear)"/>
<path d="M84.2742 26.1141C86.0456 25.4267 88.6625 25.9321 88.6625 25.9321C87.4346 25.5076 85.8041 25.2447 84.1736 25.8108C83.2174 26.1318 82.3817 26.7384 81.7781 27.5495C81.7781 27.5495 82.5028 26.8014 84.2742 26.1141Z" fill="#DBA779"/>
<path d="M84.838 27.4564C88.6626 27.0722 89.81 29.2354 89.81 29.2354C88.8639 28.4874 87.1328 27.517 84.9587 27.7192C82.7847 27.9213 81.0133 30.59 81.0133 30.59C81.0133 30.59 81.9796 27.7313 84.838 27.4564Z" fill="#391B13"/>
<path opacity="0.7" d="M71.5561 36.6026C71.1414 38.7435 69.7625 40.5752 67.8905 41.3454C65.4367 42.3563 63.6129 39.1903 63.152 35.2622C62.8923 33.1071 66.0043 31.4736 67.9972 31.8738C69.99 32.2741 71.9708 34.4616 71.5561 36.6026Z" fill="url(#paint31_radial)"/>
<path opacity="0.7" d="M82.9735 36.6026C83.3882 38.7435 84.7671 40.5752 86.6391 41.3454C89.093 42.3563 90.9167 39.1903 91.3777 35.2622C91.6374 33.1071 88.5253 31.4736 86.5325 31.8738C84.5396 32.2741 82.5589 34.4616 82.9735 36.6026Z" fill="url(#paint32_radial)"/>
<path d="M63.0818 24.1469C60.2315 27.044 58.5768 28.8675 59.0237 31.0206C59.6678 34.0814 63.7582 34.6111 63.7582 34.6111C61.7613 33.8025 56.8396 30.4788 65.6624 23.6374C69.8131 20.4028 61.1373 14.6309 61.1373 14.6309C62.3954 15.953 66.9507 20.2147 63.0818 24.1469Z" fill="#634744"/>
<path d="M140.959 87.5266C140.881 87.4862 140.406 86.6553 139.894 85.9417L139.381 86.4572L140.959 87.5266Z" fill="url(#paint33_linear)"/>
<path d="M139.538 90.7776C139.271 90.3551 138.968 89.9572 138.63 89.5889L138.355 90.1044C138.355 90.1044 139.379 90.7776 139.538 90.7776Z" fill="#13253A"/>
<path d="M156.549 67.1502C156.162 66.758 155.753 66.3875 155.326 66.0403C155.326 66.0403 155.958 65.8381 156.233 65.7633C156.509 65.6885 157.298 66.3981 157.182 66.7539C157.143 66.952 156.549 67.1502 156.549 67.1502Z" fill="#FFDEB3"/>
<path d="M140.603 76.3812C140.603 76.3812 141.038 73.4861 143.602 71.8607C144.234 71.4564 149.8 69.4023 150.233 69.0465C150.668 68.7291 153.351 66.3112 153.856 66.0342C154.362 65.7572 156.145 65.361 156.856 66.2364C157.409 66.9096 156.067 67.4656 155.356 67.9407C154.921 68.2581 152.435 70.2797 152.435 70.2797C152.435 70.2797 157.763 70.7953 158.273 70.8357C158.826 70.8761 166.049 70.4799 166.759 70.5183C167.47 70.5567 171.061 70.7205 170.987 71.9456C170.868 73.7287 160.171 71.7879 160.171 71.7879L140.603 76.3812Z" fill="url(#paint34_linear)"/>
<path d="M155.682 72.1356C155.682 72.1356 159.306 71.6605 162.945 71.3026C164.72 71.1449 168.551 71.0257 171.037 71.7777C171.055 71.8823 171.051 71.9896 171.024 72.0922C170.996 72.1948 170.948 72.2903 170.88 72.3721L155.682 72.1356Z" fill="url(#paint35_linear)"/>
<path d="M154.537 74.4444L145.023 71.986C145.023 71.986 158.997 71.9072 160.97 71.7838C162.943 71.6605 168.114 71.6646 169.223 71.8243C170.332 71.984 172.814 72.2286 172.973 72.9746C173.211 74.1634 171.79 73.9268 171.198 73.846C170.566 73.7671 166.067 73.5286 166.067 73.5286L154.537 74.4444Z" fill="url(#paint36_linear)"/>
<path d="M155.723 73.0576C158.044 72.5626 160.416 72.3495 162.788 72.4228C165.077 72.5016 169.064 72.9383 170.437 73.7712L155.723 73.0576Z" fill="url(#paint37_linear)"/>
<path d="M151.143 72.7421C151.143 72.7421 161.091 72.3378 165.636 72.9443C168.241 73.2617 170.294 73.6175 170.176 74.689C170.057 75.4815 167.961 75.0448 167.017 75.0064C165.834 74.9276 157.504 74.1735 156.793 74.2139L151.143 72.7421Z" fill="url(#paint38_linear)"/>
<path d="M164.682 74.8022L165.747 74.881C165.747 74.881 164.958 74.2078 164.326 74.0096C163.575 73.7711 161.208 73.2171 160.501 73.2171C159.948 73.2171 157.186 73.1383 153.83 73.3364L164.682 74.8022Z" fill="url(#paint39_linear)"/>
<path d="M139.216 78.2108C139.216 78.2108 142.058 73.5327 143.085 72.819C146.44 70.4799 150.98 72.1054 152.204 72.5805C154.376 73.4134 156.94 73.3729 157.612 73.3729C158.323 73.4134 165.31 73.6499 165.664 75.5968C165.783 76.27 165.31 76.3105 163.77 76.1123C162.23 75.9142 161.322 75.9546 159.388 75.8738C157.453 75.7545 156.427 76.0315 155.124 76.1123C153.822 76.1932 147.308 78.3726 146.281 79.0458C145.255 79.719 143.32 81.86 143.32 81.86L139.216 78.2108Z" fill="#F7D9AB"/>
<path d="M141.354 74.9195C141.354 74.9195 142.419 72.7381 144.315 72.0649C146.731 71.2319 148.895 71.3916 151.815 72.3823C154.579 73.2941 157.421 73.3345 158.408 73.3345C159.394 73.3345 164.487 73.85 165.473 75.2773C164.716 74.8171 163.889 74.4826 163.026 74.2867C161.645 73.9693 157.46 73.6519 156.828 73.6135C156.157 73.573 153.907 73.7712 151.459 72.8998C149.446 72.1862 147.117 71.9476 145.656 72.1457C144.353 72.265 142.775 73.0171 141.354 74.9195Z" fill="url(#paint40_linear)"/>
<path d="M155.445 67.9831C155.721 67.7809 156.471 67.3483 156.669 67.1501C156.669 67.1501 155.682 67.3078 155.404 67.506C155.127 67.7041 151.781 70.3201 151.781 70.3201H152.492C152.492 70.3201 154.221 68.9737 155.445 67.9831Z" fill="url(#paint41_linear)"/>
<path d="M152.683 70.3162C152.683 70.3162 157.892 70.7913 158.406 70.7913C158.919 70.7913 164.288 70.5183 165.511 70.5588C162.866 70.8357 160.064 71.3513 158.249 71.1531C156.393 71.0359 152.683 70.3162 152.683 70.3162Z" fill="url(#paint42_linear)"/>
<path d="M142.813 74.2866C143.643 73.5729 146.129 73.3748 147.195 73.5325C148.806 73.771 154.223 74.6424 150.589 75.5542C150.273 75.633 143.959 77.8932 142.773 76.941C141.589 75.9504 141.632 75.2772 142.813 74.2866Z" fill="url(#paint43_linear)"/>
<path d="M146.366 70.7204C146.366 70.7204 149.989 69.1738 150.191 69.0546C150.392 68.9353 153.077 66.5153 153.911 66.0706C153.476 66.6265 150.633 69.4791 150.287 69.7965C149.941 70.1139 146.366 70.7204 146.366 70.7204Z" fill="url(#paint44_linear)"/>
<path d="M163.261 76.1102C163.261 76.1102 159.116 75.1984 158.287 75.2389C157.458 75.2793 153.985 76.3811 153.985 76.3811C157.063 76.0106 160.167 75.92 163.261 76.1102Z" fill="url(#paint45_linear)"/>
<path d="M162.907 76.1102C162.907 76.0313 163.42 75.9525 163.774 75.9525C164.328 75.9525 164.92 75.9121 165.236 75.9929C165.437 76.0334 165.276 76.5084 165.276 76.5084L162.907 76.1102Z" fill="#FFDEB3"/>
<path d="M167.327 75.0387C167.327 75.0387 167.919 74.7213 169.743 74.6829C170.019 74.6829 169.98 75.2388 169.98 75.2388C169.092 75.2537 168.204 75.1867 167.327 75.0387Z" fill="#FFDEB3"/>
<path d="M169.853 73.7711C169.652 73.7307 170.88 73.4153 172.498 73.4153C172.814 73.4153 172.774 74.0096 172.774 74.0096C172.774 74.0096 170.642 74.0076 169.853 73.7711Z" fill="#FFDEB3"/>
<path d="M120.512 93.2764C120.512 93.2764 113.484 106.32 118.7 106.32C123.916 106.32 140.366 83.8008 146.247 79.2115L140.998 75.8818C135.669 82.2158 126.235 91.6105 120.512 93.2764Z" fill="#F7D9AB"/>
<path d="M145.498 78.4028C144.196 78.8071 137.96 86.8938 136.655 88.5921C129.668 96.9173 121.419 105.004 117.353 106.195C120.898 110.125 141.392 83.1659 146.169 79.4803C146.958 78.886 148.695 78.2512 149.76 77.8953C150.825 77.5395 153.911 76.3811 153.911 76.3811C153.911 76.3811 146.958 77.9722 145.498 78.4028Z" fill="url(#paint46_linear)"/>
<path d="M139.971 77.022C139.971 77.022 130.536 87.7268 120.115 93.434C120.115 93.434 117.273 99.7376 119.207 98.6277C135.669 84.1585 139.971 77.022 139.971 77.022Z" fill="url(#paint47_linear)"/>
<path d="M136.064 81.1057L135.353 81.7789L139.178 86.8938L140.085 85.9032C138.866 84.7912 136.064 81.1057 136.064 81.1057Z" fill="url(#paint48_linear)"/>
<path d="M135.629 81.2332L129.59 85.7132L135.275 93.3632L140.959 87.5347C140.959 87.5347 139.894 86.623 137.88 84.1646C135.867 81.7386 135.629 81.2332 135.629 81.2332Z" fill="#E9E9E9"/>
<path d="M133.616 82.7312L133.063 83.1355C133.063 83.1355 133.465 86.2671 137.996 90.6279C138.469 90.1123 139.142 89.3987 139.142 89.3987C139.142 89.3987 135.156 85.9821 133.616 82.7312Z" fill="url(#paint49_linear)"/>
<path d="M104.13 60.0925C104.13 60.0925 101.407 79.5573 102.077 81.8175C102.077 81.8175 109.024 98.0718 111.196 101.125C113.368 104.177 115.894 107.428 119.046 107.746C122.205 108.101 138.151 92.1261 139.494 90.7776C139.494 90.7776 133.139 84.7126 133.02 83.1255C133.02 83.1255 121.178 91.8471 120.626 92.2049C120.075 92.5627 115.85 81.4213 115.298 79.7958C113.837 75.5139 110.205 63.8589 108.271 62.0354C106.656 60.4888 105.6 60.4504 104.13 60.0925Z" fill="#E9788A"/>
<path d="M104.681 85.4261L100.142 78.6858L98.878 103.702L104.681 85.4261Z" fill="url(#paint50_linear)"/>
<path d="M58.496 59.2212C58.496 59.2212 52.8114 60.6081 51.2332 60.8385C49.655 61.069 28.0237 94.5056 26.0872 97.4067C24.7849 99.3091 25.5739 102.799 25.733 103.751C25.892 104.703 33.5091 112.353 35.8783 114.098C43.1411 119.53 50.0898 121.234 50.0898 121.234C50.0898 121.234 49.9328 118.181 51.5512 114.534C41.8004 108.065 36.7097 101.531 37.4605 100.858C44.4878 94.356 51.3499 83.3742 51.3499 83.3742C51.3499 83.3742 56.7588 87.9331 58.2182 91.9765L58.496 59.2212Z" fill="#F7D9AB"/>
<path d="M46.6195 121.107C46.6195 121.107 47.3301 120.632 47.6059 120.155L46.8168 119.52C46.8208 119.56 46.4585 120.353 46.6195 121.107Z" fill="url(#paint51_linear)"/>
<path d="M41.5249 120.393C42.8481 119.895 44.0376 119.094 44.9993 118.054L41.0116 114.526L41.5249 120.393Z" fill="#13253A"/>
<path d="M68.4846 55.0181L68.247 66.9905L68.4846 69.6854C68.4846 69.6854 66.5119 68.4157 66.1958 68.1792L66.9849 55.7317L68.4846 55.0181Z" fill="url(#paint52_linear)"/>
<path d="M70.1028 57.9839C70.1028 57.9839 67.4195 56.9145 66.6687 56.0027C66.6687 56.0027 61.7349 57.43 58.8523 58.4287C54.9834 59.7367 49.2988 61.5219 49.1015 61.7988C49.1015 61.7988 56.4428 72.1862 57.3124 75.5948C58.2203 79.0438 61.3786 99.3414 60.668 104.774C59.9575 110.206 56.9581 116.787 54.2729 122.564C54.2729 122.564 69.3922 132.673 77.3253 131.802C85.2604 130.89 95.5225 129.982 99.2666 124.744C99.2666 124.744 96.5431 115.943 96.5431 108.845C96.5431 101.234 97.2939 95.8419 97.6482 89.1421C98.0025 82.4422 98.5561 73.0455 99.9772 71.0642C101.439 69.083 104.043 63.4121 105.306 62.6985C105.306 62.6985 100.372 59.0595 88.6483 56.1968C88.6483 56.1968 86.8366 60.1613 84.8578 61.0731C84.8578 61.0731 82.2128 75.6292 77.1603 80.8552C77.1683 80.8673 70.1028 64.4937 70.1028 57.9839Z" fill="#E9E9E9"/>
<path d="M91.1664 247.716C84.3626 266.498 85.047 274.666 85.047 276.384C85.047 278.102 86.8386 291.061 84.8055 293.447C82.7724 295.832 74.8614 294.175 73.8348 293.487C72.8082 292.8 74.016 286.472 74.016 284.43C74.016 282.388 75.8276 270.703 76.2302 269.227C76.9951 266.417 79.9743 262.414 79.9743 248.748C79.9743 235.081 82.3496 202.997 82.3496 202.997L82.0678 191.392C86.3554 190.867 90.6431 190.22 94.9105 189.634C95.6755 189.533 96.4404 189.452 97.2053 189.351C96.541 193.192 96.0579 202.734 95.9372 203.765C95.595 206.838 97.9904 228.935 91.1664 247.716Z" fill="#F7D9AB"/>
<path d="M97.5475 189.674C97.004 192.06 95.615 206.07 96.6618 216.279C97.7085 226.489 91.9514 246.463 91.1664 248.323C90.3813 250.183 86.597 262.94 86.597 262.94C86.597 262.94 88.006 253.074 90.9047 238.498C93.8034 223.921 94.0107 212.27 92.4003 213.746C83.4426 221.995 81.1619 238.209 79.4308 258.795C77.76 232.857 81.1217 218.968 81.1217 211.124C81.1217 209.385 81.1217 197.902 79.9944 190.968C84.8859 190.422 90.0391 190.321 94.9105 189.634C95.6553 189.533 96.4001 189.431 97.1449 189.351C97.2921 189.441 97.4274 189.55 97.5475 189.674Z" fill="url(#paint53_linear)"/>
<path d="M85.369 279.922C85.369 279.922 83.8392 274.908 83.9398 273.352C84.0606 271.108 86.1943 264.941 86.1943 264.941C84.8658 272.24 85.369 279.922 85.369 279.922Z" fill="url(#paint54_linear)"/>
<path d="M76.6127 267.632C76.0893 268.845 75.8276 271.352 75.6867 272.08C75.5458 272.807 74.4991 283.421 74.4991 283.421C74.4991 283.421 76.814 274.02 77.3374 272.161C77.8607 270.301 80.2964 262.739 80.4977 260.819C80.699 258.898 79.4711 251.458 79.4711 251.458C79.2094 261.646 77.2568 266.134 76.6127 267.632Z" fill="url(#paint55_linear)"/>
<path d="M73.1105 293.265C73.2917 297.268 75.1899 301.523 77.9074 301.503C82.2856 301.857 85.8324 297.47 85.9935 293.689C86.3155 285.461 85.3493 279.922 85.3493 279.922C85.3493 279.922 85.9532 290.596 84.8863 292.214C83.2558 294.741 75.7273 293.871 74.7611 292.658C72.6475 290.01 74.7007 284.693 74.9423 280.912C75.3046 275.232 75.6468 272.421 75.6468 272.421C74.0163 275.555 72.9494 289.201 73.1105 293.265Z" fill="#512F2A"/>
<path d="M58.6592 283.905C58.6592 286.998 57.9345 295.064 62.0611 294.842C66.1877 294.62 69.8714 294.599 70.3344 291.991C70.7974 289.383 70.4954 284.835 70.0324 283.177C69.9042 282.653 69.816 282.119 69.7687 281.582C69.5332 279.346 69.4708 276.036 69.2997 275.488C69.0783 274.781 68.0114 269.868 68.2328 267.503C68.4543 265.137 69.8633 252.32 72.138 243.546C74.4126 234.772 72.8828 226.382 73.1042 224.016C73.2492 222.478 75.4594 211.818 76.6108 202.918C77.2147 198.194 77.5348 193.964 77.0798 191.858C77.0798 191.831 77.0798 191.805 77.0637 191.781L76.7557 191.811L58.4961 193.661C58.4961 193.661 59.9998 209.869 59.7784 213.184C59.557 216.5 56.618 221.675 56.3765 228.812C56.1349 235.948 60.5031 269.65 60.2615 272.743C60.02 275.836 58.6592 280.812 58.6592 283.905Z" fill="#F7D9AB"/>
<path d="M69.3079 275.495C69.0865 274.787 68.0196 269.874 68.241 267.509C68.4625 265.144 69.8715 252.326 72.1462 243.552C74.4208 234.778 72.891 226.388 73.1124 224.023C73.2573 222.484 75.4676 211.824 76.619 202.924C76.8646 197.902 77.0598 192.654 77.088 191.864C77.088 191.801 77.088 191.767 77.088 191.767L76.7599 191.817L72.4441 192.494C72.4441 192.494 72.1422 211.735 72.1422 213.15C72.1422 214.565 71.4577 220.994 71.9207 226.453C72.3837 231.911 71.2363 244.506 70.0889 247.357C68.9415 250.207 66.4253 270.141 66.4253 272.527C66.4253 274.912 69.9702 283.806 69.9702 283.806C69.8917 283.211 69.8272 282.429 69.7689 281.582C69.5414 279.358 69.479 276.042 69.3079 275.495Z" fill="url(#paint56_linear)"/>
<path d="M60.5088 264.195C60.5088 261.567 59.14 234.032 59.603 229.038C60.066 224.045 61.6562 215.513 63.0251 212.42C64.3939 209.327 65.1387 193.416 65.1387 193.416L58.4959 193.659C58.4959 193.659 59.5748 210.999 59.5748 212.414C59.5748 213.829 56.8976 221.754 56.2937 227.92C55.6495 234.632 60.6216 269.81 60.1183 272.923C59.6151 276.036 58.9106 281.192 58.9106 281.192C60.2794 278.766 62.091 274.985 62.091 272.741C62.0991 269.894 60.4887 265.952 60.5088 264.195Z" fill="url(#paint57_linear)"/>
<path d="M71.1174 293.083C70.8759 297.227 68.5468 301.523 65.8636 301.523C60.6922 301.523 58.3351 297.278 58.2344 293.346C58.0331 284.834 59.2409 279.113 59.2409 279.113C59.2409 279.113 58.174 290.232 59.3416 291.829C60.8312 293.851 68.1583 294.033 69.4668 292.436C71.6408 289.747 69.6479 284.208 69.4668 280.286C69.2051 274.403 68.7019 271.572 68.7019 271.572C70.2518 274.847 71.3187 288.898 71.1174 293.083Z" fill="#512F2A"/>
<path d="M97.2053 191.781L96.7806 194.868C96.7806 194.868 92.1327 194.692 87.9235 195.622C83.7144 196.552 81.1197 208.642 81.1197 208.642C81.1197 208.642 80.7976 199.948 80.7976 199.107C80.7976 198.266 79.9683 190.212 79.9683 190.212L97.2053 191.781Z" fill="url(#paint58_linear)"/>
<path d="M77.2167 188.305L77.2993 194.751C72.9311 195.701 58.6371 195.862 58.6371 195.862C58.5408 194.945 58.5213 194.021 58.5787 193.101L77.2167 188.305Z" fill="url(#paint59_linear)"/>
<path d="M53.3028 172.106C54.893 179.262 58.0896 194.122 58.0896 194.122C72.7641 195.375 84.5983 191.403 97.28 192.151C98.1375 187.042 98.1033 186.073 99.4198 180.53C101.272 168.319 103.285 145.094 103.023 143.236C102.761 141.378 99.3795 122.291 99.1179 120.957C98.8562 119.623 97.6484 114.811 97.6484 114.811C82.3297 118.511 56.2014 115.863 56.2014 115.863C48.0288 139.193 51.7125 164.909 53.3028 172.106Z" fill="#662AA1"/>
<path d="M95.5751 119.724C97.5075 124.151 100.547 138.708 99.8023 162.199C98.977 188.178 95.8227 192.1 95.8227 192.1L97.5478 192.181C97.5478 192.181 99.595 183.716 102.077 171.222C104.627 158.385 106.151 146.509 104.42 134.023C102.693 120.858 98.7556 119.039 98.7556 119.039L95.5751 119.724Z" fill="#662AA1"/>
<path d="M61.4836 194.447C60.3448 194.444 59.2087 194.336 58.0897 194.124C58.0897 194.124 54.3355 181.397 51.8233 168.463C50.0419 159.27 49.5406 150.791 49.5406 136.627C49.5406 122.463 56.0606 115.863 56.0606 115.863L57.9931 116.085L56.9061 119.967C52.86 131.268 53.786 158.581 56.8859 178.07C59.4223 194.021 61.5037 194.425 61.4836 194.447Z" fill="#662AA1"/>
<path d="M66.6889 298.542C71.7616 298.481 68.3395 296.298 66.9908 295.772C65.6422 295.246 62.5623 295.347 61.113 295.772C57.55 296.803 61.5961 298.582 66.6889 298.542Z" fill="#68504D"/>
<path d="M77.5993 298.362C72.5266 298.301 75.9487 296.118 77.2974 295.592C78.646 295.066 81.7259 295.167 83.1752 295.592C86.718 296.621 82.672 298.4 77.5993 298.362Z" fill="#68504D"/>
<path d="M98.3226 115.418L99.5605 118.432C99.5605 118.432 74.1972 123.486 55.6175 118.614L56.7045 114.368C56.7347 114.366 68.9635 118.774 98.3226 115.418Z" fill="#662AA1"/>
<path d="M70.4913 115.282C70.4913 115.282 67.0692 136.672 61.4329 136.308L67.7738 115.08L70.4913 115.282Z" fill="#E9576E"/>
<path d="M84.0268 115.681C84.0268 115.715 87.9803 137.056 93.0851 136.726L86.6638 115.458L84.0268 115.681Z" fill="#E9576E"/>
<path d="M100.38 66.475C100.38 66.475 96.6299 76.822 93.5521 82.4119C91.0641 86.894 83.6422 88.9157 77.9194 88.756C71.1297 88.5538 63.7481 87.3287 61.1433 81.1039C58.0635 73.7308 57.3932 72.6998 56.2478 65.2863L70.5741 65.167L77.5631 81.2333L84.6648 65.4055L100.38 66.475Z" fill="url(#paint60_linear)"/>
<path d="M72.5105 60.2904C72.5105 60.2904 73.1023 63.8971 73.3781 65.4841C73.6539 67.0307 75.2723 74.4442 77.7201 79.2012L76.5747 84.3949C76.5747 84.3949 72.8246 77.5374 71.4034 73.492C69.9822 69.4871 69.1529 61.5641 69.1529 61.0445C69.1529 61.0445 65.4812 57.6744 64.1406 57.0396L68.1665 54.4619L72.5105 60.2904Z" fill="url(#paint61_linear)"/>
<path d="M77.841 79.4398L77.368 78.4492C77.368 78.4492 76.4118 81.0309 76.2226 81.977C76.0334 82.9232 75.355 86.8129 75.2745 88.7173C75.196 90.3832 74.8014 93.3167 75.1175 98.1525L75.8683 98.1121L77.841 79.4398Z" fill="url(#paint62_linear)"/>
<path d="M75.6283 91.2545C75.7471 89.0307 76.0309 82.8504 77.5628 79.5995C79.0947 76.3487 82.3396 64.2954 82.4503 63.2643C82.561 62.2333 84.7793 58.3476 84.7793 58.3476L86.9936 56.4048L89.7171 58.7439C89.2038 59.3787 86.9936 61.2022 86.9936 61.2022C86.9936 61.2022 84.5458 71.4299 82.098 77.4161C79.6503 83.3619 79.8475 89.1115 79.6503 93.9939C79.5718 95.8579 79.4932 97.9988 79.6503 99.6546C78.3479 99.8123 77.2347 99.972 75.9403 100.211C75.6283 97.4065 75.4311 94.1475 75.6283 91.2545Z" fill="url(#paint63_linear)"/>
<path d="M57.6689 73.7308C57.6689 73.7308 56.3665 84.6337 60.9058 101.363C64.2614 101.284 69.4327 102.077 76.7357 104.058C87.5514 106.991 94.7357 110.242 95.092 108.855C95.4483 107.469 98.6831 75.1176 98.8824 73.571C98.8824 73.571 97.1069 83.2448 93.6728 89.3098C91.4586 93.1955 80.2906 93.711 77.5288 93.711C74.7671 93.711 66.989 94.1861 63.4763 90.2216C60.7488 87.0961 59.5631 83.92 57.6689 73.7308Z" fill="url(#paint64_linear)"/>
<path d="M86.9577 57.0012C87.7086 56.6454 90.2348 54.8198 90.2348 54.8198L94.4983 58.7924L93.828 66.404L87.314 59.9812C87.314 59.9812 84.5905 59.9812 83.2881 61.2104C83.2559 61.1639 84.6287 58.1111 86.9577 57.0012Z" fill="url(#paint65_linear)"/>
<path d="M76.9328 96.0117L75.7874 116.944H74.9581C74.7568 112.345 74.8393 103.108 74.9581 96.4484C75.6016 96.2422 76.2626 96.096 76.9328 96.0117Z" fill="url(#paint66_linear)"/>
<path d="M68.4444 55.3354C68.4444 55.3354 71.7215 58.3093 72.5106 60.2906C72.5106 60.2906 69.8656 59.2211 69.155 59.3L62.8383 65.9998L62.1197 58.186L68.4444 55.3354Z" fill="url(#paint67_linear)"/>
<path d="M79.3787 97.439C79.1412 103.941 79.4189 117.34 79.4189 117.34H75.4715C75.4715 117.34 75.3145 106.082 75.4313 97.9141C76.7357 97.7948 78.038 97.5178 79.3787 97.439Z" fill="url(#paint68_linear)"/>
<path d="M68.247 66.9114L68.3657 58.8247L65.7992 59.8942L66.9828 116.299L69.7849 116.097C69.7849 116.097 70.9766 108.93 70.9766 103.702C70.9323 98.5083 68.247 66.9114 68.247 66.9114Z" fill="url(#paint69_linear)"/>
<path d="M96.2352 114.922L96.0339 113.574C96.0339 113.574 82.4947 115.393 76.4155 115.159C71.4817 114.957 63.2306 115.001 56.9159 113.058L56.3241 114.961C56.3664 114.961 76.339 121.582 96.2352 114.922Z" fill="url(#paint70_linear)"/>
<path d="M53.3674 74.5231C51.9865 62.5952 49.0656 60.6079 49.0656 60.6079C49.2669 60.3309 65.0929 56.4048 65.0929 56.4048C65.3687 56.7606 63.0799 60.246 64.2635 63.3816C64.1448 67.1076 63.7905 70.9932 64.026 74.6808C65.2499 84.5526 69.5919 102.194 69.5919 102.194C69.5919 102.194 67.5004 123.365 66.7898 126.337C66.2362 128.676 64.2233 137.476 59.527 137.159C54.7905 136.841 51.1591 133.948 49.3817 131.846C49.557 121.155 59.8491 109.882 59.9598 104.769C60.0705 99.6566 53.8001 78.0529 53.3674 74.5231Z" fill="#E9788A"/>
<path d="M90.1158 61.5197L87.7868 60.052V66.8792C87.7868 66.8792 84.5902 95.8984 84.0366 104.026C83.9179 105.493 84.9042 116.237 84.9042 116.237L89.4052 117.148L90.1158 61.5197Z" fill="url(#paint71_linear)"/>
<path d="M92.6038 60.5696C93.1171 58.7056 93.3547 57.438 93.3547 57.438C105.157 60.331 105.906 60.612 105.906 60.612C104.641 61.3257 107.327 68.4218 105.865 70.4435C104.404 72.4247 99.154 99.4627 98.8782 104.379C98.6025 109.335 103.931 131.854 103.931 131.854C102.391 134.511 99.4701 136.573 94.7738 136.888C90.0373 137.205 88.0243 129.396 87.4325 126.501C86.9192 124.121 85.3008 102.119 85.3008 102.119C85.3008 102.119 91.9718 71.5109 92.6038 60.5696Z" fill="#E9788A"/>
<path d="M75.5499 93.7109C75.5499 93.7109 75.7069 101.393 75.3928 103.702L74.8795 103.583C74.8795 103.583 74.9198 95.9004 74.9983 93.7109H75.5499Z" fill="url(#paint72_linear)"/>
<path d="M104.365 68.7352C103.417 69.3296 101.642 80.7076 101.799 82.0156C101.877 82.6504 109.14 97.8737 110.68 100.649C111.437 101.998 113.603 104.614 115.262 106.12C115.735 106.557 117.788 107.984 119.131 107.865C120.789 107.707 124.105 105.01 124.105 105.01C124.105 105.01 121.025 106.991 118.696 106.318C116.367 105.645 110.241 91.7621 108.788 88.7155C102.828 76.3812 105.787 67.8234 104.365 68.7352Z" fill="#E9576E"/>
<path d="M46.853 110.917L51.3922 114.366C51.3922 114.366 47.5676 117.061 46.6557 121.107L40.178 117.219L46.853 110.917Z" fill="#F1F0F5"/>
<path d="M48.5116 112.187L48.8337 112.424C48.8337 112.424 45.5566 113.414 42.833 118.806L42.0822 118.369C42.0822 118.369 44.0891 112.622 48.5116 112.187Z" fill="url(#paint73_linear)"/>
<path d="M58.3392 58.7056C58.3392 58.7056 49.458 60.3714 49.1017 60.608C46.9298 62.0757 45.1946 68.0215 25.9305 96.9618C23.6418 100.411 26.168 105.049 26.168 105.049C26.168 105.049 29.9927 111.708 41.5632 120.391C41.5632 120.391 44.8403 112.858 48.5502 112.185C48.5502 112.185 41.8007 106.872 38.0828 100.847C39.8944 98.7065 43.6889 94.1072 50.6759 85.0299C50.6759 85.0299 54.1503 86.1398 54.7421 87.0516C55.1447 87.6459 57.5441 92.8801 58.3654 94.9806C58.3392 94.9806 60.7105 62.9471 58.3392 58.7056Z" fill="#E9788A"/>
<path d="M38.0504 100.844C38.0504 100.844 43.3405 95.1 50.6455 85.03C50.6455 85.03 53.4093 85.9013 54.7117 87.0516C54.7117 87.0516 50.6455 72.4227 50.0537 75.1985C48.9889 80.3922 44.0531 87.0132 42.2032 89.1481C40.2687 91.372 36.0053 97.3157 29.6906 98.1871L38.0504 100.844Z" fill="#E9576E"/>
<path d="M98.367 66.7134L95.1322 65.365L97.8154 64.0953C96.9076 59.8498 94.5786 57.7129 94.5786 57.7129L93.6305 57.8322C93.6305 57.8322 87.2353 98.4275 87.1568 99.1028C86.9193 101.046 87.1568 122.771 87.1568 122.771C87.1568 122.771 89.6831 104.685 91.1062 99.4606C98.2865 72.5015 98.367 66.7134 98.367 66.7134Z" fill="#E9576E"/>
<path d="M97.5379 66.1595L94.6956 65.0496L96.9099 63.7011C96.9099 63.7011 95.5672 57.9535 94.1078 56.4069C93.4375 55.6932 91.6922 53.5927 90.3577 52.2847C89.7658 53.156 89.2525 56.2896 88.2662 56.6859C88.4232 59.6598 88.4675 67.2714 88.4675 67.2714C88.4675 67.2714 85.3494 98.2739 84.9931 102.515C84.6368 106.757 85.8607 113.18 85.9795 116.154C86.1807 120.634 87.4791 126.739 87.4791 126.739C87.4791 126.739 87.1248 112.587 90.3214 98.7894C91.9721 91.3718 96.0765 79.3994 97.5379 66.1595Z" fill="#E9788A"/>
<path d="M94.6166 64.3744L94.4979 67.0693C94.4979 67.0693 89.6426 61.4389 89.4051 61.0831L89.3266 59.021L94.6166 64.3744Z" fill="#E9576E"/>
<path d="M83.2556 61.2023C83.2556 61.2023 86.1683 57.8726 86.6776 57.8726C87.1869 57.8726 89.2039 59.8538 89.2039 59.8538C89.2039 59.8538 91.7342 62.1949 94.9308 66.4364C94.9308 66.4364 94.3772 56.9608 93.7472 55.9237C90.7478 51.0878 89.5622 51.2051 89.5622 51.2051C89.1533 53.2327 87.9973 55.0306 86.3254 56.2391C85.498 56.882 84.6284 58.3881 83.2556 61.2023Z" fill="url(#paint74_linear)"/>
<path d="M79.616 93.6321L75.5498 93.7109L75.3928 103.702L79.3 104.772L79.616 93.6321Z" fill="#EDEDED"/>
<path d="M104.09 87.2092C104.09 87.2092 95.8004 96.8001 91.9718 104.685C90.2748 108.212 102.314 124.699 102.314 124.699C102.314 124.699 98.6025 104.575 98.9568 103.472C99.1158 103.029 104.09 87.2092 104.09 87.2092Z" fill="#E9576E"/>
<path d="M57.5119 66.0705L60.7488 64.8009L58.0937 63.4625C59.1203 59.2594 61.2903 57.7149 61.2903 57.7149L62.4357 57.3105C62.4357 57.3105 67.6956 98.0737 67.7741 98.7469C67.9311 100.69 67.1037 122.374 67.1037 122.374C67.1037 122.374 65.0908 104.256 63.8266 98.945C57.4717 71.8282 57.5119 66.0705 57.5119 66.0705Z" fill="#E9576E"/>
<path d="M58.3392 65.5247L61.2217 64.4936L59.0498 63.0663C59.0498 63.0663 59.9979 58.5863 61.733 57.5552C62.5624 57.0397 64.1023 55.5335 65.5234 54.2639C66.1015 55.1721 66.9453 55.8783 67.939 56.2856C67.7015 59.2191 67.466 66.8711 67.466 66.8711C67.466 66.8711 69.7487 97.9545 69.9459 102.196C70.1835 106.441 68.9193 112.82 68.6033 115.794C67.9712 121.226 66.8279 126.379 66.8279 126.379C66.8279 126.379 67.5384 112.187 64.7364 98.3103C63.2347 90.8968 59.4443 78.8071 58.3392 65.5247Z" fill="#E9788A"/>
<path d="M62.1197 63.3048L62.2385 66.119C62.2385 66.119 67.4098 60.2905 67.6856 59.9347L67.8043 57.7937L62.1197 63.3048Z" fill="#E9576E"/>
<path d="M72.5106 60.2904C72.5106 60.2904 69.7468 57.5147 69.2335 57.5147C68.7202 57.5147 67.2608 59.0612 67.2608 59.0612C67.2608 59.0612 63.0336 63.978 61.852 65.5306C61.852 65.5306 62.9973 56.8879 63.6274 55.8973C65.9161 52.2098 67.2507 51.1787 67.2507 51.1787C67.2507 51.1787 67.5265 54.191 69.7368 56.0954C70.6164 56.8414 72.3536 59.4979 72.5106 60.2904Z" fill="url(#paint75_linear)"/>
<path d="M51.3925 114.684C51.3925 114.684 53.0029 115.517 53.5242 115.398C54.0778 115.24 55.813 113.732 59.2471 108.38C59.2471 108.38 59.4484 108.063 66.4716 107.588C67.3392 107.509 72.6695 108.301 73.1023 108.38C73.5754 108.459 74.5638 110.679 68.3658 109.767L64.6559 110.44C64.6559 110.44 67.8143 111.471 68.3658 111.67C68.7684 111.827 74.0021 114.326 74.0021 114.682C74.0021 115.038 74.7912 117.061 67.8445 114.126L64.1346 113.293L67.9592 114.563C67.9592 114.563 71.9851 116.228 72.5387 116.584C73.0118 116.902 72.9413 119.081 67.3291 116.861C67.9662 117.189 68.5726 117.574 69.1408 118.012C69.4166 118.25 69.4166 119.677 66.693 118.416C66.1012 118.139 65.2719 117.86 64.3238 117.464L59.6658 116.989C59.6658 116.989 55.9559 122.38 54.6535 122.302C51.9702 122.182 48.8159 120.834 48.8159 120.834L51.3925 114.684Z" fill="#F7D9AB"/>
<path d="M51.5516 114.526C51.5516 114.526 52.7754 115.319 53.2485 115.398C54.4321 115.6 58.301 109.808 58.7358 109.213C58.9371 108.975 57.5522 114.209 57.2744 114.922C56.9584 115.636 53.17 118.331 53.011 118.331C51.9058 118.331 49.8929 116.467 49.8929 116.467L51.5516 114.526Z" fill="url(#paint76_linear)"/>
<path d="M53.6026 119.321C53.9186 119.038 58.6974 115.438 58.9712 115.602C59.2872 115.721 57.5098 120.32 54.9835 121.232C52.7733 121.978 52.4572 120.314 53.6026 119.321Z" fill="url(#paint77_linear)"/>
<path d="M64.696 110.481C64.696 110.481 68.2087 109.886 68.4059 109.808C68.4059 109.808 71.9588 110.6 73.2209 109.531C73.2209 109.531 68.7602 109.452 68.2469 109.254C68.2469 109.254 63.8647 109.769 61.6545 109.456C61.9705 109.658 62.208 109.773 62.208 109.773L64.696 110.481Z" fill="url(#paint78_linear)"/>
<path d="M64.1826 113.297C64.1826 113.297 67.0249 114.051 67.8925 114.13C67.8925 114.13 72.8666 116.509 73.8932 115.478C73.8932 115.478 70.4188 114.686 68.2569 113.497C68.2569 113.497 64.1122 112.783 60.9538 111.752C61.1018 111.946 61.2744 112.119 61.4671 112.268L64.1826 113.297Z" fill="url(#paint79_linear)"/>
<path d="M67.3795 116.865C67.3795 116.865 71.0028 118.57 72.3918 117.619L65.286 115.519L60.6683 114.013C60.6683 114.013 60.8253 114.369 61.4976 114.686C62.1699 115.003 65.1693 115.836 65.288 115.836C65.4068 115.804 67.3795 116.865 67.3795 116.865Z" fill="url(#paint80_linear)"/>
<path d="M60.5897 108.142C62.4013 107.824 66.3125 107.507 66.7876 107.547C67.2606 107.547 71.7999 108.22 71.7999 108.22C71.7999 108.22 67.0231 108.261 66.6286 108.22C66.2743 108.182 61.0245 108.182 60.5897 108.142Z" fill="url(#paint81_linear)"/>
<path d="M62.9588 110.006C62.9588 110.006 64.853 110.41 68.4059 111.71C69.6701 112.185 72.7076 113.81 72.7076 113.81C72.7076 113.81 68.4804 112.383 68.2791 112.264C68.0496 112.147 62.9588 110.006 62.9588 110.006Z" fill="url(#paint82_linear)"/>
<path d="M63.4318 112.974C63.4318 112.974 67.339 114.243 68.0496 114.52C68.7601 114.797 71.4434 115.988 71.4434 115.988C71.4434 115.988 67.6188 115.117 67.4557 114.918C67.3007 114.763 63.4318 112.974 63.4318 112.974Z" fill="url(#paint83_linear)"/>
<path d="M62.7236 115.08C62.7236 115.08 65.0929 115.715 65.2901 115.794C66.2382 116.111 68.2109 117.3 68.2109 117.3C68.2109 117.3 65.4471 116.348 65.1311 116.23C64.9379 116.152 62.7236 115.08 62.7236 115.08Z" fill="url(#paint84_linear)"/>
<path d="M71.6812 108.182C71.5625 108.182 71.3269 108.817 72.116 109.015C72.9051 109.213 73.1426 109.134 73.2211 109.094C73.2996 109.053 73.6559 108.38 73.2211 108.301C72.7133 108.208 72.1972 108.168 71.6812 108.182Z" fill="#FFE2BD"/>
<path d="M72.8263 113.891C72.7075 113.851 72.2345 114.328 72.8666 114.844C73.4986 115.359 73.7341 115.4 73.8529 115.4C73.9717 115.4 74.5232 114.924 74.1689 114.645C73.752 114.343 73.3014 114.09 72.8263 113.891Z" fill="#FFE2BD"/>
<path d="M71.3267 115.954C71.2079 115.913 70.8134 116.469 71.4837 116.906C72.1943 117.342 72.4318 117.342 72.5103 117.31C72.5889 117.278 73.1424 116.754 72.7479 116.518C72.2901 116.291 71.8148 116.103 71.3267 115.954Z" fill="#FFE2BD"/>
<path d="M68.2873 117.34C68.2088 117.3 67.774 117.696 68.3276 118.173C68.8812 118.61 69.0784 118.649 69.1569 118.649C69.2354 118.649 69.7488 118.244 69.4327 118.014C69.0672 117.762 68.6844 117.537 68.2873 117.34Z" fill="#FFE2BD"/>
<path d="M51.3923 114.366L51.8654 114.722C51.8654 114.722 49.2988 116.34 47.8394 120.551C47.8394 120.551 47.4046 120.393 46.8913 120.195C48.077 116.667 51.3923 114.366 51.3923 114.366Z" fill="url(#paint85_linear)"/>
<path d="M101.801 82.0176L92.1389 104.418L104.09 87.2093L101.801 82.0176Z" fill="#E9576E"/>
<path d="M65.5012 20.2613C62.5522 27.5393 62.5985 28.0771 61.8034 32.6663C60.0622 42.6655 62.5804 47.0202 68.3918 51.9511C75.1171 57.6502 76.645 62.9026 68.3918 71.0984C66.2158 73.2637 65.6421 78.5241 66.8016 80.3982C68.9313 83.7744 73.847 81.3241 73.847 81.3241C66.7432 88.5557 60.2353 81.8659 59.8428 78.4695C59.3556 74.3918 61.1049 71.1045 64.9235 64.061C68.7421 57.0174 62.8924 54.5712 54.6352 48.494C45.746 41.9357 51.7989 30.024 54.0816 25.74C56.3644 21.4561 63.7197 10.4359 67.6953 8.02405C78.517 1.49807 81.619 10.8787 81.619 10.8787C78.5875 3.39845 69.1004 11.2264 65.5012 20.2613Z" fill="#634744"/>
<path d="M56.3404 34.8761C55.3783 42.7768 65.0244 47.2245 65.0244 47.2245C50.1405 46.5554 53.0251 33.4913 54.1826 30.8247C57.3107 24.0581 68.2733 12.2939 68.2733 12.2939C68.2733 12.2939 56.9826 29.4216 56.3404 34.8761Z" fill="#4F3836"/>
<path opacity="0.7" d="M83.0931 36.6026C83.5078 38.7435 84.8866 40.5752 86.7587 41.3454C89.2125 42.3563 91.0362 39.1903 91.4972 35.2622C91.7569 33.1071 88.6448 31.4736 86.652 31.8738C84.6592 32.2741 82.6784 34.4616 83.0931 36.6026Z" fill="url(#paint86_radial)"/>
<defs>
<linearGradient id="paint0_linear" x1="77.3737" y1="67.4494" x2="79.1929" y2="32.3155" gradientUnits="userSpaceOnUse">
<stop stop-color="#F5F5F5"/>
<stop offset="0.64" stop-color="#EFEFEF"/>
<stop offset="1" stop-color="#E9E9E9"/>
</linearGradient>
<linearGradient id="paint1_linear" x1="66.9126" y1="36.4407" x2="74.5541" y2="58.2381" gradientUnits="userSpaceOnUse">
<stop stop-color="#F0C999"/>
<stop offset="0.52" stop-color="#F1CB9C"/>
<stop offset="0.85" stop-color="#F4D3A4"/>
<stop offset="1" stop-color="#F7D9AB"/>
</linearGradient>
<linearGradient id="paint2_linear" x1="60.938" y1="28.3176" x2="61.7095" y2="36.6686" gradientUnits="userSpaceOnUse">
<stop stop-color="#DBA779"/>
<stop offset="0.23" stop-color="#E2B384"/>
<stop offset="0.67" stop-color="#ECC393"/>
<stop offset="1" stop-color="#F0C999"/>
</linearGradient>
<linearGradient id="paint3_linear" x1="-19283.7" y1="51942.5" x2="-17944.1" y2="42800.9" gradientUnits="userSpaceOnUse">
<stop stop-color="#F0C999"/>
<stop offset="0.52" stop-color="#F1CB9C"/>
<stop offset="0.85" stop-color="#F4D3A4"/>
<stop offset="1" stop-color="#F7D9AB"/>
</linearGradient>
<linearGradient id="paint4_linear" x1="-2168.47" y1="4609.24" x2="-2174.34" y2="4736.4" gradientUnits="userSpaceOnUse">
<stop stop-color="#F0C999"/>
<stop offset="0.52" stop-color="#F1CB9C"/>
<stop offset="0.85" stop-color="#F4D3A4"/>
<stop offset="1" stop-color="#F7D9AB"/>
</linearGradient>
<linearGradient id="paint5_linear" x1="77.8546" y1="-12.1785" x2="78.5063" y2="35.6604" gradientUnits="userSpaceOnUse">
<stop stop-color="#F7D9AB"/>
<stop offset="0.48" stop-color="#F3CFA0"/>
<stop offset="1" stop-color="#F0C999"/>
</linearGradient>
<linearGradient id="paint6_linear" x1="70.1193" y1="34.8418" x2="67.1444" y2="23.8907" gradientUnits="userSpaceOnUse">
<stop stop-color="#F7D9AB"/>
<stop offset="0.52" stop-color="#F6D7A8"/>
<stop offset="0.85" stop-color="#F3CFA0"/>
<stop offset="1" stop-color="#F0C999"/>
</linearGradient>
<linearGradient id="paint7_linear" x1="-6509.6" y1="16592.5" x2="-6374.04" y2="17233" gradientUnits="userSpaceOnUse">
<stop stop-color="#F7D9AB"/>
<stop offset="0.52" stop-color="#F6D7A8"/>
<stop offset="0.85" stop-color="#F3CFA0"/>
<stop offset="1" stop-color="#F0C999"/>
</linearGradient>
<linearGradient id="paint8_linear" x1="65.4811" y1="26.8743" x2="74.4695" y2="31.1865" gradientUnits="userSpaceOnUse">
<stop stop-color="#DBA779"/>
<stop offset="0.48" stop-color="#E4B586"/>
<stop offset="1" stop-color="#F0C999"/>
</linearGradient>
<linearGradient id="paint9_linear" x1="70.9686" y1="29.195" x2="74.4547" y2="30.0493" gradientUnits="userSpaceOnUse">
<stop stop-color="white"/>
<stop offset="0.47" stop-color="#FDFCFC"/>
<stop offset="0.77" stop-color="#F6F4F4"/>
<stop offset="1" stop-color="#ECE7E7"/>
</linearGradient>
<linearGradient id="paint10_linear" x1="-2524.69" y1="6971.97" x2="-2573.98" y2="6978.41" gradientUnits="userSpaceOnUse">
<stop stop-color="white"/>
<stop offset="0.47" stop-color="#FDFCFC"/>
<stop offset="0.77" stop-color="#F6F4F4"/>
<stop offset="1" stop-color="#ECE7E7"/>
</linearGradient>
<linearGradient id="paint11_linear" x1="66.4071" y1="27.6505" x2="73.2658" y2="31.9199" gradientUnits="userSpaceOnUse">
<stop stop-color="#B5361F"/>
<stop offset="1" stop-color="#52160B"/>
</linearGradient>
<linearGradient id="paint12_linear" x1="74.5495" y1="29.7551" x2="62.9357" y2="28.6126" gradientUnits="userSpaceOnUse">
<stop stop-color="#5A2A1F"/>
<stop offset="0.29" stop-color="#4A2319"/>
<stop offset="0.66" stop-color="#3D1D15"/>
<stop offset="1" stop-color="#391B13"/>
</linearGradient>
<linearGradient id="paint13_linear" x1="73.9395" y1="23.5587" x2="63.4539" y2="23.8132" gradientUnits="userSpaceOnUse">
<stop stop-color="#673024"/>
<stop offset="0.34" stop-color="#53271C"/>
<stop offset="0.68" stop-color="#462118"/>
<stop offset="1" stop-color="#421F16"/>
</linearGradient>
<linearGradient id="paint14_linear" x1="-55404.1" y1="-4069.34" x2="-54860" y2="-4021.94" gradientUnits="userSpaceOnUse">
<stop stop-color="#673024"/>
<stop offset="0.34" stop-color="#53271C"/>
<stop offset="0.68" stop-color="#462118"/>
<stop offset="1" stop-color="#421F16"/>
</linearGradient>
<linearGradient id="paint15_linear" x1="-3101.33" y1="2330.41" x2="-3101.28" y2="2350.12" gradientUnits="userSpaceOnUse">
<stop stop-color="#F7D9AB"/>
<stop offset="0.52" stop-color="#F6D7A8"/>
<stop offset="0.85" stop-color="#F3CFA0"/>
<stop offset="1" stop-color="#F0C999"/>
</linearGradient>
<linearGradient id="paint16_linear" x1="77.8748" y1="37.1423" x2="77.9235" y2="33.9197" gradientUnits="userSpaceOnUse">
<stop stop-color="#FFDEB3"/>
<stop offset="1" stop-color="#F7D9AB"/>
</linearGradient>
<linearGradient id="paint17_linear" x1="-1109.31" y1="1417.9" x2="-1096.98" y2="1404.19" gradientUnits="userSpaceOnUse">
<stop stop-color="#DBA779"/>
<stop offset="0.48" stop-color="#E4B586"/>
<stop offset="1" stop-color="#F0C999"/>
</linearGradient>
<linearGradient id="paint18_linear" x1="-1064.89" y1="1336.06" x2="-1078.83" y2="1322.14" gradientUnits="userSpaceOnUse">
<stop stop-color="#DBA779"/>
<stop offset="0.48" stop-color="#E4B586"/>
<stop offset="1" stop-color="#F0C999"/>
</linearGradient>
<linearGradient id="paint19_linear" x1="-1539.19" y1="-1671.15" x2="-1560.16" y2="-1686.07" gradientUnits="userSpaceOnUse">
<stop stop-color="#F7D9AB"/>
<stop offset="0.52" stop-color="#F6D7A8"/>
<stop offset="0.85" stop-color="#F3CFA0"/>
<stop offset="1" stop-color="#F0C999"/>
</linearGradient>
<linearGradient id="paint20_linear" x1="-10769.3" y1="-3931.25" x2="-10748.3" y2="-3946.18" gradientUnits="userSpaceOnUse">
<stop stop-color="#F7D9AB"/>
<stop offset="0.52" stop-color="#F6D7A8"/>
<stop offset="0.85" stop-color="#F3CFA0"/>
<stop offset="1" stop-color="#F0C999"/>
</linearGradient>
<linearGradient id="paint21_linear" x1="73.7886" y1="42.4594" x2="81.3313" y2="42.8622" gradientUnits="userSpaceOnUse">
<stop stop-color="#E8D8D7"/>
<stop offset="0.14" stop-color="#F0E5E4"/>
<stop offset="0.39" stop-color="#FBF8F8"/>
<stop offset="0.57" stop-color="white"/>
<stop offset="1" stop-color="#E8D2D1"/>
</linearGradient>
<linearGradient id="paint22_linear" x1="84.7673" y1="41.8488" x2="71.5481" y2="41.8608" gradientUnits="userSpaceOnUse">
<stop stop-color="#E8D8D7"/>
<stop offset="0.04" stop-color="#EBDEDD"/>
<stop offset="0.21" stop-color="#F6F0F0"/>
<stop offset="0.38" stop-color="#FDFBFB"/>
<stop offset="0.57" stop-color="white"/>
<stop offset="0.69" stop-color="#FBF8F8"/>
<stop offset="0.87" stop-color="#F1E4E3"/>
<stop offset="1" stop-color="#E8D2D1"/>
</linearGradient>
<linearGradient id="paint23_linear" x1="82.9538" y1="41.4829" x2="72.5186" y2="41.4889" gradientUnits="userSpaceOnUse">
<stop stop-color="#E8D8D7"/>
<stop offset="0.05" stop-color="#EBDCDB"/>
<stop offset="0.31" stop-color="#F7EFEF"/>
<stop offset="0.48" stop-color="#FBF6F6"/>
<stop offset="1" stop-color="#E8D2D1"/>
</linearGradient>
<linearGradient id="paint24_linear" x1="-4652.82" y1="2709.65" x2="-4651.94" y2="2824" gradientUnits="userSpaceOnUse">
<stop stop-color="#DBA779"/>
<stop offset="0.48" stop-color="#E4B586"/>
<stop offset="1" stop-color="#F0C999"/>
</linearGradient>
<linearGradient id="paint25_linear" x1="71.6308" y1="67.5743" x2="72.643" y2="66.2911" gradientUnits="userSpaceOnUse">
<stop stop-color="#973123"/>
<stop offset="1" stop-color="#642119"/>
</linearGradient>
<linearGradient id="paint26_linear" x1="-52410.4" y1="-9054" x2="-52757.9" y2="-8799.3" gradientUnits="userSpaceOnUse">
<stop stop-color="#DBA779"/>
<stop offset="0.48" stop-color="#E4B586"/>
<stop offset="1" stop-color="#F0C999"/>
</linearGradient>
<linearGradient id="paint27_linear" x1="-14855.6" y1="-5417.13" x2="-14907.3" y2="-5407.7" gradientUnits="userSpaceOnUse">
<stop stop-color="white"/>
<stop offset="0.47" stop-color="#FDFCFC"/>
<stop offset="0.77" stop-color="#F6F4F4"/>
<stop offset="1" stop-color="#ECE7E7"/>
</linearGradient>
<linearGradient id="paint28_linear" x1="-23778.7" y1="-6670.75" x2="-23729.4" y2="-6677.18" gradientUnits="userSpaceOnUse">
<stop stop-color="white"/>
<stop offset="0.47" stop-color="#FDFCFC"/>
<stop offset="0.77" stop-color="#F6F4F4"/>
<stop offset="1" stop-color="#ECE7E7"/>
</linearGradient>
<linearGradient id="paint29_linear" x1="88.6868" y1="31.7182" x2="82.0824" y2="27.6074" gradientUnits="userSpaceOnUse">
<stop stop-color="#52160B"/>
<stop offset="1" stop-color="#B5361F"/>
</linearGradient>
<linearGradient id="paint30_linear" x1="-61691.7" y1="-7264.52" x2="-61061.7" y2="-7399.54" gradientUnits="userSpaceOnUse">
<stop stop-color="#5A2A1F"/>
<stop offset="0.29" stop-color="#4A2319"/>
<stop offset="0.66" stop-color="#3D1D15"/>
<stop offset="1" stop-color="#391B13"/>
</linearGradient>
<radialGradient id="paint31_radial" cx="0" cy="0" r="1" gradientUnits="userSpaceOnUse" gradientTransform="translate(67.8749 37.0923) rotate(11.0441) scale(4.4595 4.65274)">
<stop stop-color="#F9B58E"/>
<stop offset="0.56" stop-color="#F8C89D"/>
<stop offset="1" stop-color="#F7D9AB"/>
</radialGradient>
<radialGradient id="paint32_radial" cx="0" cy="0" r="1" gradientUnits="userSpaceOnUse" gradientTransform="translate(1.0811e+06 279958) rotate(168.956) scale(187.752 223.749)">
<stop stop-color="#F9B58E"/>
<stop offset="0.56" stop-color="#F8C89D"/>
<stop offset="1" stop-color="#F7D9AB"/>
</radialGradient>
<linearGradient id="paint33_linear" x1="140.186" y1="86.9505" x2="140.857" y2="85.4364" gradientUnits="userSpaceOnUse">
<stop stop-color="#DDDDDD"/>
<stop offset="0.11" stop-color="#DEDEDE"/>
<stop offset="1" stop-color="#E4E4E4"/>
</linearGradient>
<linearGradient id="paint34_linear" x1="137.286" y1="86.6897" x2="162.178" y2="68.5728" gradientUnits="userSpaceOnUse">
<stop stop-color="#F0C999"/>
<stop offset="0.71" stop-color="#F5D3A5"/>
<stop offset="1" stop-color="#F7D9AB"/>
</linearGradient>
<linearGradient id="paint35_linear" x1="7753.46" y1="2172.82" x2="8699.92" y2="1025.15" gradientUnits="userSpaceOnUse">
<stop stop-color="#F0C999"/>
<stop offset="0.71" stop-color="#F5D3A5"/>
<stop offset="1" stop-color="#F7D9AB"/>
</linearGradient>
<linearGradient id="paint36_linear" x1="10348.1" y1="4724.41" x2="10628.1" y2="6107.32" gradientUnits="userSpaceOnUse">
<stop stop-color="#F0C999"/>
<stop offset="0.71" stop-color="#F5D3A5"/>
<stop offset="1" stop-color="#F7D9AB"/>
</linearGradient>
<linearGradient id="paint37_linear" x1="7428.35" y1="2476.36" x2="8495.71" y2="1396.54" gradientUnits="userSpaceOnUse">
<stop stop-color="#F0C999"/>
<stop offset="0.71" stop-color="#F5D3A5"/>
<stop offset="1" stop-color="#F7D9AB"/>
</linearGradient>
<linearGradient id="paint38_linear" x1="6914.02" y1="4417.51" x2="7483.55" y2="5858.1" gradientUnits="userSpaceOnUse">
<stop stop-color="#F0C999"/>
<stop offset="0.71" stop-color="#F5D3A5"/>
<stop offset="1" stop-color="#F7D9AB"/>
</linearGradient>
<linearGradient id="paint39_linear" x1="5920.94" y1="3029.6" x2="6910.94" y2="2371.64" gradientUnits="userSpaceOnUse">
<stop stop-color="#F0C999"/>
<stop offset="0.71" stop-color="#F5D3A5"/>
<stop offset="1" stop-color="#F7D9AB"/>
</linearGradient>
<linearGradient id="paint40_linear" x1="10424.9" y1="6674.64" x2="12194.9" y2="5791.15" gradientUnits="userSpaceOnUse">
<stop stop-color="#F0C999"/>
<stop offset="0.71" stop-color="#F5D3A5"/>
<stop offset="1" stop-color="#F7D9AB"/>
</linearGradient>
<linearGradient id="paint41_linear" x1="2462.14" y1="5721.41" x2="2680" y2="5689.91" gradientUnits="userSpaceOnUse">
<stop stop-color="#F0C999"/>
<stop offset="0.71" stop-color="#F5D3A5"/>
<stop offset="1" stop-color="#F7D9AB"/>
</linearGradient>
<linearGradient id="paint42_linear" x1="153.323" y1="70.0533" x2="178.757" y2="72.4266" gradientUnits="userSpaceOnUse">
<stop stop-color="#FFDEB3"/>
<stop offset="0.68" stop-color="#FCDCB0"/>
<stop offset="1" stop-color="#F7D9AB"/>
</linearGradient>
<linearGradient id="paint43_linear" x1="4341.14" y1="6491.95" x2="4513.41" y2="6776.66" gradientUnits="userSpaceOnUse">
<stop stop-color="#FFDEB3"/>
<stop offset="0.68" stop-color="#FCDCB0"/>
<stop offset="1" stop-color="#F7D9AB"/>
</linearGradient>
<linearGradient id="paint44_linear" x1="3920.7" y1="8306.29" x2="3662.42" y2="8442.73" gradientUnits="userSpaceOnUse">
<stop stop-color="#FFDEB3"/>
<stop offset="0.68" stop-color="#FCDCB0"/>
<stop offset="1" stop-color="#F7D9AB"/>
</linearGradient>
<linearGradient id="paint45_linear" x1="4647.99" y1="2074.62" x2="4881.62" y2="1927.31" gradientUnits="userSpaceOnUse">
<stop stop-color="#FFDEB3"/>
<stop offset="0.68" stop-color="#FCDCB0"/>
<stop offset="1" stop-color="#F7D9AB"/>
</linearGradient>
<linearGradient id="paint46_linear" x1="20939.8" y1="-53964" x2="11753.8" y2="-46549.3" gradientUnits="userSpaceOnUse">
<stop stop-color="#F0C999"/>
<stop offset="0.52" stop-color="#F1CB9C"/>
<stop offset="0.85" stop-color="#F4D3A4"/>
<stop offset="1" stop-color="#F7D9AB"/>
</linearGradient>
<linearGradient id="paint47_linear" x1="9216.66" y1="38052.1" x2="6370.37" y2="35587.2" gradientUnits="userSpaceOnUse">
<stop stop-color="#FFDEB3"/>
<stop offset="0.68" stop-color="#FCDCB0"/>
<stop offset="1" stop-color="#F7D9AB"/>
</linearGradient>
<linearGradient id="paint48_linear" x1="139.612" y1="85.6727" x2="133.124" y2="80.262" gradientUnits="userSpaceOnUse">
<stop stop-color="#F0C999"/>
<stop offset="0.94" stop-color="#F6D8AA"/>
<stop offset="1" stop-color="#F7D9AB"/>
</linearGradient>
<linearGradient id="paint49_linear" x1="2613.18" y1="13267.3" x2="2360.99" y2="13576.1" gradientUnits="userSpaceOnUse">
<stop stop-color="#DDDDDD"/>
<stop offset="0.11" stop-color="#DEDEDE"/>
<stop offset="1" stop-color="#E4E4E4"/>
</linearGradient>
<linearGradient id="paint50_linear" x1="104.671" y1="91.1939" x2="98.878" y2="91.1939" gradientUnits="userSpaceOnUse">
<stop stop-color="#38373B"/>
<stop offset="1" stop-color="#333236"/>
</linearGradient>
<linearGradient id="paint51_linear" x1="47.2154" y1="119.813" x2="46.7163" y2="121.362" gradientUnits="userSpaceOnUse">
<stop stop-color="#E1E1E1"/>
<stop offset="0.8" stop-color="#E3E3E3"/>
<stop offset="1" stop-color="#E6E6E6"/>
</linearGradient>
<linearGradient id="paint52_linear" x1="63.3066" y1="-26760.4" x2="-330.222" y2="-25114.9" gradientUnits="userSpaceOnUse">
<stop stop-color="#F0C999"/>
<stop offset="0.52" stop-color="#F1CB9C"/>
<stop offset="0.85" stop-color="#F4D3A4"/>
<stop offset="1" stop-color="#F7D9AB"/>
</linearGradient>
<linearGradient id="paint53_linear" x1="-128251" y1="-59736" x2="-114321" y2="-45549.7" gradientUnits="userSpaceOnUse">
<stop stop-color="#F0C999"/>
<stop offset="0.52" stop-color="#F1CB9C"/>
<stop offset="0.85" stop-color="#F4D3A4"/>
<stop offset="1" stop-color="#F7D9AB"/>
</linearGradient>
<linearGradient id="paint54_linear" x1="-14075.8" y1="-43.41" x2="-13316.4" y2="-4746.21" gradientUnits="userSpaceOnUse">
<stop stop-color="#F0C999"/>
<stop offset="0.52" stop-color="#F1CB9C"/>
<stop offset="0.85" stop-color="#F4D3A4"/>
<stop offset="1" stop-color="#F7D9AB"/>
</linearGradient>
<linearGradient id="paint55_linear" x1="-40353.3" y1="-118.355" x2="-39037.5" y2="-10293.6" gradientUnits="userSpaceOnUse">
<stop stop-color="#F0C999"/>
<stop offset="0.52" stop-color="#F1CB9C"/>
<stop offset="0.85" stop-color="#F4D3A4"/>
<stop offset="1" stop-color="#F7D9AB"/>
</linearGradient>
<linearGradient id="paint56_linear" x1="77.0739" y1="237.784" x2="66.4354" y2="237.784" gradientUnits="userSpaceOnUse">
<stop stop-color="#F3D0A0"/>
<stop offset="1" stop-color="#F7D9AB"/>
</linearGradient>
<linearGradient id="paint57_linear" x1="-61296.4" y1="-36701.6" x2="-60903" y2="-36701.6" gradientUnits="userSpaceOnUse">
<stop stop-color="#F3D0A0"/>
<stop offset="1" stop-color="#F7D9AB"/>
</linearGradient>
<linearGradient id="paint58_linear" x1="86.2125" y1="194.981" x2="93.1724" y2="207.205" gradientUnits="userSpaceOnUse">
<stop stop-color="#EDC697"/>
<stop offset="0.5" stop-color="#EEC99A"/>
<stop offset="0.82" stop-color="#F3D1A2"/>
<stop offset="1" stop-color="#F7D9AB"/>
</linearGradient>
<linearGradient id="paint59_linear" x1="-129019" y1="-4761.88" x2="-130826" y2="-4295.72" gradientUnits="userSpaceOnUse">
<stop stop-color="#F0C999"/>
<stop offset="0.52" stop-color="#F1CB9C"/>
<stop offset="0.85" stop-color="#F4D3A4"/>
<stop offset="1" stop-color="#F7D9AB"/>
</linearGradient>
<linearGradient id="paint60_linear" x1="76.6291" y1="97.7666" x2="78.3752" y2="64.9899" gradientUnits="userSpaceOnUse">
<stop stop-color="#F3F3F3"/>
<stop offset="1" stop-color="#E9E9E9"/>
</linearGradient>
<linearGradient id="paint61_linear" x1="1290.91" y1="51351" x2="-262.027" y2="53805.3" gradientUnits="userSpaceOnUse">
<stop stop-color="#F5F5F5"/>
<stop offset="0.64" stop-color="#EFEFEF"/>
<stop offset="1" stop-color="#E9E9E9"/>
</linearGradient>
<linearGradient id="paint62_linear" x1="337.139" y1="32590.7" x2="983.435" y2="33665.2" gradientUnits="userSpaceOnUse">
<stop stop-color="#E1E1E1"/>
<stop offset="0.8" stop-color="#E3E3E3"/>
<stop offset="1" stop-color="#E6E6E6"/>
</linearGradient>
<linearGradient id="paint63_linear" x1="1827.83" y1="76405.9" x2="4006.2" y2="79818.9" gradientUnits="userSpaceOnUse">
<stop stop-color="#F5F5F5"/>
<stop offset="0.64" stop-color="#EFEFEF"/>
<stop offset="1" stop-color="#E9E9E9"/>
</linearGradient>
<linearGradient id="paint64_linear" x1="4371.63" y1="62012.7" x2="4028.43" y2="58571.9" gradientUnits="userSpaceOnUse">
<stop stop-color="#E1E1E1"/>
<stop offset="0.8" stop-color="#E3E3E3"/>
<stop offset="1" stop-color="#E6E6E6"/>
</linearGradient>
<linearGradient id="paint65_linear" x1="90.9152" y1="55.4567" x2="88.3869" y2="64.318" gradientUnits="userSpaceOnUse">
<stop stop-color="#E1E1E1"/>
<stop offset="0.81" stop-color="#E4E4E4"/>
<stop offset="1" stop-color="#E6E6E6"/>
</linearGradient>
<linearGradient id="paint66_linear" x1="259.428" y1="32713.4" x2="1076.35" y2="33653.4" gradientUnits="userSpaceOnUse">
<stop stop-color="#E1E1E1"/>
<stop offset="0.8" stop-color="#E3E3E3"/>
<stop offset="1" stop-color="#E6E6E6"/>
</linearGradient>
<linearGradient id="paint67_linear" x1="447.207" y1="19734.2" x2="613.356" y2="19379.7" gradientUnits="userSpaceOnUse">
<stop stop-color="#E1E1E1"/>
<stop offset="0.81" stop-color="#E4E4E4"/>
<stop offset="1" stop-color="#E6E6E6"/>
</linearGradient>
<linearGradient id="paint68_linear" x1="483.836" y1="32986.3" x2="483.836" y2="31032.4" gradientUnits="userSpaceOnUse">
<stop stop-color="#F5F5F5"/>
<stop offset="0.64" stop-color="#EFEFEF"/>
<stop offset="1" stop-color="#E9E9E9"/>
</linearGradient>
<linearGradient id="paint69_linear" x1="374.835" y1="88768.2" x2="-4361.8" y2="112383" gradientUnits="userSpaceOnUse">
<stop stop-color="#DDDDDD"/>
<stop offset="0.11" stop-color="#DEDEDE"/>
<stop offset="1" stop-color="#E4E4E4"/>
</linearGradient>
<linearGradient id="paint70_linear" x1="3825.53" y1="7589.31" x2="3830.2" y2="7809.61" gradientUnits="userSpaceOnUse">
<stop stop-color="#DDDDDD"/>
<stop offset="0.11" stop-color="#DEDEDE"/>
<stop offset="1" stop-color="#E4E4E4"/>
</linearGradient>
<linearGradient id="paint71_linear" x1="1012.12" y1="88167.1" x2="-3131.64" y2="112591" gradientUnits="userSpaceOnUse">
<stop stop-color="#DDDDDD"/>
<stop offset="0.11" stop-color="#DEDEDE"/>
<stop offset="1" stop-color="#E4E4E4"/>
</linearGradient>
<linearGradient id="paint72_linear" x1="140.912" y1="16238.2" x2="-122.765" y2="16374.1" gradientUnits="userSpaceOnUse">
<stop stop-color="#E1E1E1"/>
<stop offset="0.8" stop-color="#E3E3E3"/>
<stop offset="1" stop-color="#E6E6E6"/>
</linearGradient>
<linearGradient id="paint73_linear" x1="-137.845" y1="10557.5" x2="-446.704" y2="10305.1" gradientUnits="userSpaceOnUse">
<stop stop-color="#E1E1E1"/>
<stop offset="0.8" stop-color="#E3E3E3"/>
<stop offset="1" stop-color="#E6E6E6"/>
</linearGradient>
<linearGradient id="paint74_linear" x1="1931.44" y1="27255.9" x2="2109.55" y2="29900.2" gradientUnits="userSpaceOnUse">
<stop stop-color="#F5F5F5"/>
<stop offset="0.64" stop-color="#EFEFEF"/>
<stop offset="1" stop-color="#E9E9E9"/>
</linearGradient>
<linearGradient id="paint75_linear" x1="589.775" y1="25765.3" x2="762.746" y2="28256.1" gradientUnits="userSpaceOnUse">
<stop stop-color="#F5F5F5"/>
<stop offset="0.64" stop-color="#EFEFEF"/>
<stop offset="1" stop-color="#E9E9E9"/>
</linearGradient>
<linearGradient id="paint76_linear" x1="-1677.99" y1="-15195.9" x2="262.725" y2="-13693.1" gradientUnits="userSpaceOnUse">
<stop stop-color="#F0C999"/>
<stop offset="0.52" stop-color="#F1CB9C"/>
<stop offset="0.85" stop-color="#F4D3A4"/>
<stop offset="1" stop-color="#F7D9AB"/>
</linearGradient>
<linearGradient id="paint77_linear" x1="-72.5506" y1="9055.29" x2="118.272" y2="9068.31" gradientUnits="userSpaceOnUse">
<stop stop-color="#FFDEB3"/>
<stop offset="0.68" stop-color="#FCDCB0"/>
<stop offset="1" stop-color="#F7D9AB"/>
</linearGradient>
<linearGradient id="paint78_linear" x1="204.136" y1="-1638.95" x2="868.631" y2="-1638.95" gradientUnits="userSpaceOnUse">
<stop stop-color="#F0C999"/>
<stop offset="0.52" stop-color="#F1CB9C"/>
<stop offset="0.85" stop-color="#F4D3A4"/>
<stop offset="1" stop-color="#F7D9AB"/>
</linearGradient>
<linearGradient id="paint79_linear" x1="190.026" y1="-5920.49" x2="1022.28" y2="-5920.49" gradientUnits="userSpaceOnUse">
<stop stop-color="#F0C999"/>
<stop offset="0.52" stop-color="#F1CB9C"/>
<stop offset="0.85" stop-color="#F4D3A4"/>
<stop offset="1" stop-color="#F7D9AB"/>
</linearGradient>
<linearGradient id="paint80_linear" x1="148.882" y1="-5739.32" x2="830.957" y2="-5739.32" gradientUnits="userSpaceOnUse">
<stop stop-color="#F0C999"/>
<stop offset="0.52" stop-color="#F1CB9C"/>
<stop offset="0.85" stop-color="#F4D3A4"/>
<stop offset="1" stop-color="#F7D9AB"/>
</linearGradient>
<linearGradient id="paint81_linear" x1="260.131" y1="1211.42" x2="884.428" y2="1211.42" gradientUnits="userSpaceOnUse">
<stop stop-color="#FFDEB3"/>
<stop offset="0.68" stop-color="#FCDCB0"/>
<stop offset="1" stop-color="#F7D9AB"/>
</linearGradient>
<linearGradient id="paint82_linear" x1="351.231" y1="6080.43" x2="823.365" y2="6080.43" gradientUnits="userSpaceOnUse">
<stop stop-color="#FFDEB3"/>
<stop offset="0.68" stop-color="#FCDCB0"/>
<stop offset="1" stop-color="#F7D9AB"/>
</linearGradient>
<linearGradient id="paint83_linear" x1="318.762" y1="4804.51" x2="638.345" y2="4804.51" gradientUnits="userSpaceOnUse">
<stop stop-color="#FFDEB3"/>
<stop offset="0.68" stop-color="#FCDCB0"/>
<stop offset="1" stop-color="#F7D9AB"/>
</linearGradient>
<linearGradient id="paint84_linear" x1="218.345" y1="3551.35" x2="368.698" y2="3551.35" gradientUnits="userSpaceOnUse">
<stop stop-color="#FFDEB3"/>
<stop offset="0.68" stop-color="#FCDCB0"/>
<stop offset="1" stop-color="#F7D9AB"/>
</linearGradient>
<linearGradient id="paint85_linear" x1="-245.383" y1="-9327.09" x2="-326.395" y2="-9123.44" gradientUnits="userSpaceOnUse">
<stop stop-color="#F0C999"/>
<stop offset="0.52" stop-color="#F1CB9C"/>
<stop offset="0.85" stop-color="#F4D3A4"/>
<stop offset="1" stop-color="#F7D9AB"/>
</linearGradient>
<radialGradient id="paint86_radial" cx="0" cy="0" r="1" gradientUnits="userSpaceOnUse" gradientTransform="translate(86.7742 37.0923) rotate(168.956) scale(4.45949 4.65274)">
<stop stop-color="#F9B58E"/>
<stop offset="0.56" stop-color="#F8C89D"/>
<stop offset="1" stop-color="#F7D9AB"/>
</radialGradient>
</defs>
</svg>
